{
  "sites": [
    {
      "key": "豆瓣",
      "name": "豆瓣推荐",
      "type": 3,
      "api": "csp_DouDou",
      "searchable": 0,
      "quickSearch": 0,
      "jar": "https://files.zohopublic.com.cn/public/workdrive-public/download/gd5ic01b6d4922692401eac6018178d033d06",
      "filterable": 0
    },
    {
      "key": "荐片",
      "name": "荐片P2P",
      "type": 3,
      "api": "csp_JPJ",
      "playerType": 2,
      "searchable": 1,
      "quickSearch": 1,
      "jar": "https://files.zohopublic.com.cn/public/workdrive-public/download/gd5ic01b6d4922692401eac6018178d033d06",
      "changeable": 0
    },
    {
      "key": "原创",
      "name": "原创",
      "type": 3,
      "api": "csp_YCyz",
      "timeout": 15,
      "playerType": 1,
      "searchable": 1,
      "quickSearch": 1,
      "jar": "https://files.zohopublic.com.cn/public/workdrive-public/download/gd5ic01b6d4922692401eac6018178d033d06",
      "changeable": 1
    },
    {
      "key": "csp_Bttoo",
      "name": "Bttwoo",
      "type": 3,
      "api": "csp_Bttwoo",
      "searchable": 1,
      "quickSearch": 1,
      "jar": "https://files.zohopublic.com.cn/public/workdrive-public/download/gd5ic01b6d4922692401eac6018178d033d06",
      "changeable": 1
    },
    {
      "key": "农民",
      "name": "农民",
      "type": 3,
      "api": "csp_Nmyswv",
      "searchable": 1,
      "quickSearch": 1,
      "jar": "https://files.zohopublic.com.cn/public/workdrive-public/download/gd5ic01b6d4922692401eac6018178d033d06",
      "changeable": 1
    },
    {
      "key": "厂长",
      "name": "厂长",
      "type": 3,
      "api": "csp_NewCz",
      "playerType": 2,
      "searchable": 1,
      "quickSearch": 1,
      "jar": "https://files.zohopublic.com.cn/public/workdrive-public/download/gd5ic01b6d4922692401eac6018178d033d06",
      "changeable": 1,
      "ext": "https://www.czzyvideo.com/"
    },
    {
      "key": "文采",
      "name": "文采",
      "type": 3,
      "api": "csp_Jpys",
      "playerType": 2,
      "searchable": 1,
      "quickSearch": 1,
      "jar": "https://files.zohopublic.com.cn/public/workdrive-public/download/gd5ic01b6d4922692401eac6018178d033d06",
      "changeable": 1
    },
    {
      "key": "苹果",
      "name": "苹果",
      "type": 3,
      "api": "csp_LiteApple",
      "jar": "https://files.zohopublic.com.cn/public/workdrive-public/download/gd5ic01b6d4922692401eac6018178d033d06",
      "searchable": 1,
      "quickSearch": 1,
      "changeable": 1
    },
    {
      "key": "AppSj",
      "name": "视界",
      "type": 3,
      "api": "csp_AppSj",
      "jar": "https://files.zohopublic.com.cn/public/workdrive-public/download/gd5ic01b6d4922692401eac6018178d033d06",
      "playerType": 2,
      "searchable": 1,
      "quickSearch": 1,
      "changeable": 1
    },
    {
      "key": "可可",
      "name": "可可",
      "type": 3,
      "api": "csp_Kekys",
      "jar": "https://files.zohopublic.com.cn/public/workdrive-public/download/gd5ic01b6d4922692401eac6018178d033d06",
      "playerType": 2,
      "searchable": 1,
      "quickSearch": 1,
      "changeable": 1
    },
    {
      "key": "腐剧",
      "name": "腐剧",
      "type": 3,
      "api": "csp_AppYsV2",
      "searchable": 1,
      "quickSearch": 1,
      "changeable": 1,
      "ext": "http://www.fuju2024.cc:8013/ruifenglb_api.php/v1.vod"
    },
    {
      "key": "alllive",
      "name": "一直播LIVE",
      "type": 3,
      "api": "csp_Alllive",
      "jar": "https://files.zohopublic.com.cn/public/workdrive-public/download/gd5ic01b6d4922692401eac6018178d033d06",
      "playerType": 2,
      "searchable": 0,
      "quickSearch": 0,
      "changeable": 0
    },
    {
      "key": "Lib",
      "name": "立播",
      "type": 3,
      "api": "csp_Libvio",
      "jar": "https://files.zohopublic.com.cn/public/workdrive-public/download/gd5ic01b6d4922692401eac6018178d033d06",
      "searchable": 1,
      "quickSearch": 1,
      "changeable": 1,
      "ext": {
        "Cloud-drive": "tvfan/Cloud-drive.txt",
        "from": "4k|auto"
      }
    },
    {
      "key": "drpy_js_荐片",
      "name": "荐片[js]",
      "type": 3,
      "api": "https://www.100km.top/lib/drpy2.min.js",
      "ext": "https://www.100km.top/js/荐片.js",
      "playerType": "1"
    },
    {
      "key": "drpy_js_厂长资源",
      "name": "厂长资源[js]",
      "type": 3,
      "api": "https://www.100km.top/lib/drpy2.min.js",
      "ext": "https://www.100km.top/js/厂长资源.js"
    },
    {
      "key": "drpy_js_8号影院",
      "name": "8号影院[js]",
      "type": 3,
      "api": "https://www.100km.top/lib/drpy2.min.js",
      "ext": "https://www.100km.top/js/8号影院.js"
    },
    {
      "key": "drpy_js_NY影院",
      "name": "纽约影院[js]",
      "type": 3,
      "api": "https://www.100km.top/lib/drpy2.min.js",
      "ext": "https://www.100km.top/js/NY影院.js"
    },
    {
      "key": "drpy_js_楚门影院",
      "name": "楚门影院[js]",
      "type": 3,
      "api": "https://www.100km.top/lib/drpy2.min.js",
      "ext": "https://www.100km.top/js/楚门影院.js"
    },
    {
      "key": "drpy_js_B站影视",
      "name": "B站影视[js]",
      "type": 3,
      "api": "https://www.100km.top/lib/drpy2.min.js",
      "ext": "https://www.100km.top/js/B站影视.js"
    },
    {
      "key": "drpy_js_奇米动漫",
      "name": "奇米动漫[js]",
      "type": 3,
      "api": "https://www.100km.top/lib/drpy2.min.js",
      "ext": "https://www.100km.top/js/奇米动漫.js"
    },
    {
      "key": "drpy_js_NT动漫",
      "name": "NT动漫[js]",
      "type": 3,
      "api": "https://www.100km.top/lib/drpy2.min.js",
      "ext": "https://www.100km.top/js/NT动漫.js"
    },
    {
      "key": "新6V",
      "name": "新6V磁力",
      "type": 3,
      "api": "csp_SixV",
      "searchable": 1,
      "jar": "https://files.zohopublic.com.cn/public/workdrive-public/download/gd5ic01b6d4922692401eac6018178d033d06",
      "quickSearch": 1,
      "changeable": 0,
      "ext": "https://www.xb6v.com/"
    },
    {
      "key": "暴风",
      "name": "暴风",
      "type": 1,
      "api": "https://bfzyapi.com/api.php/provide/vod"
    },
    {
      "key": "Biliych",
      "name": "🅱哔哔演唱会┃弹幕",
      "type": 3,
      "api": "csp_Bili",
      "style": {
        "type": "rect",
        "ratio": 1.597
      },
      "searchable": 1,
      "quickSearch": 0,
      "changeable": 0,
      "ext": {
        "json": "https://im.feelec.com.cn/res/file.html?id=2c9a91099293dce40194194f4eb2747e"
      }
    },
    {
      "key": "dr_兔小贝",
      "name": "📚儿童启蒙",
      "type": 3,
      "api": "https://ghfast.top/raw.githubusercontent.com/fantaiying7/EXT/refs/heads/main/drpy2.min.js",
      "ext": "https://ghfast.top/raw.githubusercontent.com/fantaiying7/EXT/refs/heads/main/%E5%85%94%E5%B0%8F%E8%B4%9D.js",
      "style": {
        "type": "rect",
        "ratio": 1.597
      },
      "searchable": 0,
      "quickSearch": 0,
      "changeable": 0
    },
    {
      "key": "少儿教育",
      "name": "📚少儿教育",
      "type": 3,
      "api": "csp_Bili",
      "style": {
        "type": "rect",
        "ratio": 1.597
      },
      "searchable": 0,
      "quickSearch": 0,
      "changeable": 0,
      "ext": {
        "json": "https://im.feelec.com.cn/res/file.html?id=2c9a91099293dce4019465168f841292"
      }
    },
    {
      "key": "小学课堂",
      "name": "📚小学课堂",
      "type": 3,
      "api": "csp_Bili",
      "style": {
        "type": "rect",
        "ratio": 1.597
      },
      "searchable": 0,
      "quickSearch": 0,
      "changeable": 0,
      "ext": {
        "json": "https://im.feelec.com.cn/res/file.html?id=2c9a91099293dce401946513bb42128a"
      }
    },
    {
      "key": "初中课堂",
      "name": "📚初中课堂",
      "type": 3,
      "api": "csp_Bili",
      "style": {
        "type": "rect",
        "ratio": 1.597
      },
      "searchable": 0,
      "quickSearch": 0,
      "changeable": 0,
      "ext": {
        "json": "https://im.feelec.com.cn/res/file.html?id=2c9a91099293dce401946513bb2d1289"
      }
    },
    {
      "key": "高中教育",
      "name": "📚高中课堂",
      "type": 3,
      "api": "csp_Bili",
      "style": {
        "type": "rect",
        "ratio": 1.597
      },
      "searchable": 0,
      "quickSearch": 0,
      "changeable": 0,
      "ext": {
        "json": "https://im.feelec.com.cn/res/file.html?id=2c9a91099293dce401946513bd90128b"
      }
    },
    {
      "api": "csp_Auete",
      "filterable": 1,
      "key": "csp_Auete",
      "name": "Auete(爬虫)",
      "quickSearch": 0,
      "searchable": 0,
      "type": 3
    },
    {
      "key": "csp_FirstAid",
      "name": "急救",
      "type": 3,
      "api": "csp_FirstAid",
      "searchable": 0,
      "filterable": 1
  },
    {
      "key": "csp_Lgyy",
      "name": "蓝光",
      "type": 3,
      "api": "csp_Lgyy",
      "searchable": 0,
      "filterable": 1
    },
    {
      "api": "csp_Jumi",
      "filterable": 1,
      "key": "csp_Jumi",
      "name": "剧迷(爬虫)",
      "quickSearch": 0,
      "searchable": 1,
      "type": 3
    },
    {
      "api": "csp_Xb6v",
      "ext": "",
      "filterable": 1,
      "key": "Xb6v",
      "name": "🔥新6V(SP)",
      "quickSearch": 1,
      "searchable": 1,
      "type": 3
    },
    {
      "api": "csp_CZSPP",
      "filterable": 0,
      "key": "csp_CZSPP",
      "name": "厂长资源",
      "quickSearch": 0,
      "searchable": 0,
      "type": 3
    },
    {
      "api": "csp_Uvod",
      "filterable": 1,
      "key": "csp_Uvod",
      "name": "Uvod(飞机)",
      "quickSearch": 0,
      "searchable": 0,
      "type": 3,
      "ext":{
        "proxy":"http://127.0.0.1:10809"
      }
    },
    {
      "api": "csp_Quark",
      "filterable": 1,
      "key": "csp_Quark",
      "name": "Quark",
      "quickSearch": 0,
      "searchable": 0,
      "ext": {
        "quarkCookie": "ctoken=DMGSO0SeLnZaW5GxMkZWEqeH; b-user-id=558ee96b-57cd-0ad8-5647-54e744310f32; b-user-id=558ee96b-57cd-0ad8-5647-54e744310f32; grey-id=207bbafb-ee84-6304-71c6-2c87a953c238; grey-id.sig=oXd9CUlHV0l1wFJtBelHaAayjDkopwKXmhQgm4KIC3g; isQuark=false; isQuark.sig=DWPHMZYiiwQ-v58AbcP-rBdSIpzO8ZnrD67BdJuPatU; _UP_A4A_11_=wb96c19ecb584966b6e247a14f717ef6; __pus=1fa116795c4a151f736b380e7d7ed024AAStvJHfbGf/khGWKnmT7b+cSkc2fgsEXAcpAY6ffbgLGZVNK9mNyRA3PGARGGKCu4fU0b/FMlPPtxmRaUUflpw8; __kp=80a85e90-baf0-11ef-b679-6b3483afe36e; __kps=AAS7zqWk7TuDYriSEoVJ1bp8; __ktd=lWBRguyv6qMHpHCFD/XNJw==; __uid=AAS7zqWk7TuDYriSEoVJ1bp8; isg=BLa2e-3-zV-SQbk7tFRYkzEZB-y41_oRU0bYJyCUExk0Y1z9iGSGIdhQfz8PS_Ip; tfstk=goG-RNv9EnxlPrVMZQ90xd-Wv58mfKbrzXo5t6V3qKiYc2TzK2wlOW3K4JGo-7ZIDPiEtbvPFkELSPaIZ3FWJB3I5u1otLyC9oaUAe57VrwbSyklFuZQcoauNJkuxuqL92o9ohAMs4uzT5tMjCbrOl0Q_as7dMVXGPFLPNXoC33zTWtco69M64osnR0ZdWTYGy48RWw5FoTYJPEQOuwCcta_ckNIAJZfcPUNVywQFoTY8oZQOWiIlblCykb7v6HH_pY5VeSifchYy8Eskd5C9ZZcjo07D61Q2zeRH4ZAO6Gxnf5Qru9NokPu44a-YC5zNJHIZSGWcBNsQmhLC5pHz53xnA2-H31LmbqYKbwAVTaTwuesN-Q164yIHjFoNHWZoqE7BSDD3323w0Hab8920D3YqDG8hgK0xA0mN-n6msnUpvGuGbtX6g-isfFIJGqT-TTvk9WUFrrnzbyRMjqHmrEMotXFL-44klYvk9WUFrzYjEAcL9y0u; __wpkreporterwid_=8964776e-cb75-4aad-b4ac-122dd3400362; __itrace_wid=ece7efbd-a4a6-457b-3fde-c436d290d4dd; __puus=6d917126657a7d03c68e5813a67a5a78AAQzhRqXW9rOjF8slesTk96nrMriQXji1cFWcMPB3zs3KADkpMmTEelQ3o6pLfFxDvjvR1gbiklmtkKUmkx9gu17O6KZBuPfWlr1wJ+LonlYafVMqQJFaJsDQeznhNfsQaUqd9hCCBLD2RYTa56saDfQGg9jikcSPdLxHN5eiHnRUmqKv9zJcfyGVvPd/TASIq4Wf2Cy62VHm4XuTalA1kc3",
        "quarkClasses": [
          {
            "type_name": "经典剧集",
            "type_id": "https://pan.quark.cn/s/047991d5955e/e8ea50e04bb3480db0f1ee9f3155d49b",
            "type_flag": "2"
          },
          {
            "type_name": "跨年晚会合集",
            "type_id": "https://pan.quark.cn/s/9ebb62b93194",
            "type_flag": "2"
          }
        ]
      },
      "type": 3
    },
    {
      "api": "csp_UC",
      "filterable": 1,
      "key": "csp_UC",
      "name": "UC",
      "quickSearch": 0,
      "searchable": 0,
      "ext": {
        "ucCookie": "ctoken=X6BYxED9SZs6yaa5RnewezPl;UDRIVE_TRANSFER_SESS=OSjfjvdvVB3kri7vp2BXpO8zFvKwBAY2kk7eicfA9iHBFdDlZmavQoQFtAIzHJAJpvRLxnA1WG5tE8EU31eST-NYT4dbsN7NzUzg34WXSuarlikSXqoKdjzUSJZcOUGOImIMdzM9_a_5kvwUbvDjqeBPcIYXAoW1NOPJBhqTXQxCMbt0PYA_P1VjIwGY3J_U;b-user-id=3ed1488d-3207-7c00-3376-3f7f989b736b;__itrace_wid=98b4fbc6-14b2-4f8c-1b91-bc57f8479ab3;_UP_A4A_11_=wb96c1ac386a49f99e490a90b1f9ef73;_UP_D_=pc;__pus=b979be0a5641760f21c0e723014965afAASObhQXtVSCAcyBhzsyJKXxewITkO1bDgIuACDfCKUllKY5GDa4f+aWj7itRpY3e8MqZlnMKE1A4kF6hRw3re3/;__kp=5b85f210-c164-11ef-9cb3-0f60c39d6897;__kps=AATLhwUilIHGTwYKwMW3DU1v;__ktd=Nq3OwP4vgnSQCtkVXW2xAw==;__uid=AATLhwUilIHGTwYKwMW3DU1v;_UP_28A_52_=519;tfstk=gGdKIN9k4DkHez5mtXMGqJ1PnjY-iQLUXH8bZgj3FhK9qUThF6fuwLI9kBXSYUxO23YPABbhxatJjG5lxBvHeyR9D7VnYv87w_fSmmcmiezFa_imQNSUEM7y5ggGdqVz2pfSmmcMgVG_n_tH--t3BFsNJy_WVJgO1wj_OaNCPlgOzG15Ras51G_5RuwCV3TsWaS1V_1WNSrf4jjLwL0CJ1yIbTF7NCQddvTCf7_w6wBdcet0N7TfJ9IXRGo4srNCHH6JaqF9Xpte91Xxf2C6BHRRnQqI5_65ftdH5qef2pYD9tIzlIAYbDZc71eKWVezU9_N4qLfSoGZuLQOmVAzU8WHwNImWVezU9_NWi0ae8yPKFC..;__puus=5fb84c8dbb4ad005551429ae62f3d500AASbj1IE64pGLm6yFzN+3sUq4rZGkJMMcxJDtJCEOTiwNq47YtSP+27tgb8FOfzNPRM7ejMoV+n4Ct4DIs396Pl40ciBTRfQKxd1G4W9qb8Cm97WONRr696DFSsjly2FZNBeMC7feJGuPmCr4GqzK981r+97d5iiZshsEaIywqvUNGwBfTrBgqDno6YLAbHpMtA=",
        "ucClasses": [
          {
            "type_name": "2024最新精整豆瓣TOP250部",
            "type_id": "https://drive.uc.cn/s/c0503fdee6644",
            "type_flag": "2"
          },
          {
            "type_name": "影视ziyuan每日更新",
            "type_id": "https://drive.uc.cn/s/42e08284433b4#NZQb",
            "type_flag": "2"
          },
          {
            "type_name": "2023日剧",
            "type_id": "https://drive.uc.cn/s/391b86c09cd24",
            "type_flag": "2"
          },
          {
            "type_name": "2023韩剧",
            "type_id": "https://drive.uc.cn/s/391b86c09cd24",
            "type_flag": "2"
          },
          {
            "type_name": "音乐",
            "type_id": "https://drive.uc.cn/s/369e30038dae4",
            "type_flag": "2"
          },
          {
            "type_name": "完美世界",
            "type_id": "https://drive.uc.cn/s/5e0c900955654",
            "type_flag": "2"
          },
          {
            "type_name": "诛仙2",
            "type_id": "https://drive.uc.cn/s/db80b739256e4",
            "type_flag": "2"
          },
          {
            "type_name": "斗罗大陆2-绝世唐门4K",
            "type_id": "https://drive.uc.cn/s/cdbc974cf3c14",
            "type_flag": "2"
          },
          {
            "type_name": "七夕之国-2024",
            "type_id": "https://drive.uc.cn/s/714a0d7f921b4",
            "type_flag": "2"
          },
          {
            "type_name": "遮天4K",
            "type_id": "https://drive.uc.cn/s/9cca54e72e7e4",
            "type_flag": "2"
          }
        ]
      },
      "type": 3
    },
    {
      "api": "csp_Ali",
      "filterable": 1,
      "key": "csp_Ali",
      "name": "Ali",
      "quickSearch": 0,
      "searchable": 0,
      "ext": {
        "token": "2379914361074eb4a77f1d8eadd56f2e",
        "aliClasses": [
          {
            "type_name": "每日更新电视剧合集",
            "type_id": "https://www.alipan.com/s/4ydLxf7VgH7/folder/657bd9529befca98423c43c48a92733c623ea85b",
            "type_flag": "2"
          },
          {
            "type_name": "港剧",
            "type_id": "https://www.alipan.com/s/ftMhRaKUfYp/folder/618b14ac5dd34a3c43534da8b4979b1930d7b5ad",
            "type_flag": "2"
          },
          {
            "type_name": "总合集",
            "type_id": "https://www.alipan.com/s/cdqCsAWD9wC#6666",
            "type_flag": "2"
          },
          {
            "type_name": "每日更新合集",
            "type_id": "https://www.alipan.com/s/4ydLxf7VgH7",
            "type_flag": "2"
          },
          {
            "type_name": "诺兰全集",
            "type_id": "https://www.alipan.com/s/gf2GebXnZHh",
            "type_flag": "2"
          },
          {
            "type_name": "综艺",
            "type_id": "https://www.alipan.com/s/UuHi9PeYSVz",
            "type_flag": "2"
          },
          {
            "type_name": "综合",
            "type_id": "https://www.alipan.com/s/v9To3HC6vhs",
            "type_flag": "2"
          },
          {
            "type_name": "影视资源",
            "type_id": "https://www.alipan.com/s/uWa9gbM3RJ7",
            "type_flag": "2"
          },
          {
            "type_name": "台剧",
            "type_id": "https://www.alipan.com/s/MLWPRHRt9W3",
            "type_flag": "2"
          },
          {
            "type_name": "大陆剧[a-j]",
            "type_id": "https://www.alipan.com/s/8Fg4TNsd2A2",
            "type_flag": "2"
          },
          {
            "type_name": "大陆剧[k-t]",
            "type_id": "https://www.alipan.com/s/ar8Kg9azw1S",
            "type_flag": "2"
          },
          {
            "type_name": "大陆剧[w-z]",
            "type_id": "https://www.alipan.com/s/GMYSz3AHFaA",
            "type_flag": "2"
          },
          {
            "type_name": "李连杰电影合集",
            "type_id": "https://www.alipan.com/s/cmy3KCTRpFA",
            "type_flag": "2"
          },
          {
            "type_name": "成龙电影合集",
            "type_id": "https://www.alipan.com/s/hMsDJ6dsGxQ",
            "type_flag": "2"
          }
        ]
      },
      "type": 3
    },
    {
      "api": "csp_PTT",
      "filterable": 1,
      "key": "csp_PTT",
      "name": "PTT(飞机)",
      "quickSearch": 0,
      "searchable": 0,
      "type": 3,
      "ext":{
        "proxy":"http://127.0.0.1:10809"
      }
    },
    {
      "api": "csp_Kugou",
      "filterable": 1,
      "key": "csp_Kugou",
      "name": "Kugou",
      "quickSearch": 0,
      "searchable": 0,
      "type": 3
    },
    {
      "api": "csp_Kanqiu",
      "filterable": 1,
      "key": "csp_Kanqiu",
      "name": "Kanqiu",
      "quickSearch": 0,
      "searchable": 0,
      "type": 3
    },
    {
      "api": "csp_Miss",
      "filterable": 1,
      "key": "csp_Miss",
      "name": "Miss(飞机)",
      "quickSearch": 1,
      "searchable": 1,
      "type": 3,
      "ext":{
        "proxy":"http://127.0.0.1:10809"
      }
    },
    {
      "api": "csp_Hanime",
      "filterable": 1,
      "key": "csp_Hanime",
      "name": "Hanime(飞机)",
      "quickSearch": 1,
      "searchable": 1,
      "type": 3,
      "ext":{
        "proxy":"http://127.0.0.1:10809"
      }
    },
    {
      "api": "csp_Jable",
      "filterable": 1,
      "key": "csp_Jable",
      "name": "Jable(飞机)",
      "quickSearch": 1,
      "searchable": 1,
      "type": 3,
      "ext":{
        "proxy":"http://127.0.0.1:10809"
      }
    },
    {
      "api": "csp_Doll",
      "filterable": 1,
      "key": "csp_Doll",
      "name": "Doll(飞机)",
      "quickSearch": 1,
      "searchable": 1,
      "type": 3,
      "ext":{
        "proxy":"http://127.0.0.1:10809"
      }
    },
    {
      "api": "csp_QQ",
      "filterable": 1,
      "key": "csp_QQ",
      "name": "腾讯视频(官方)",
      "quickSearch": 1,
      "searchable": 1,
      "type": 3
    },
    {
      "api": "csp_IQIYI",
      "filterable": 1,
      "key": "csp_IQIYI",
      "name": "爱奇艺视频(官方)",
      "quickSearch": 1,
      "searchable": 1,
      "type": 3
    },
    {
      "api": "csp_MGTV",
      "filterable": 1,
      "key": "csp_MGTV",
      "name": "芒果视频(官方)",
      "quickSearch": 1,
      "searchable": 1,
      "type": 3
    },
    {
      "api": "csp_YouKu",
      "filterable": 1,
      "key": "csp_YouKu",
      "name": "优酷视频(官方)",
      "quickSearch": 1,
      "searchable": 1,
      "type": 3
    },
    {
      "api": "csp_BiLiBiLi",
      "filterable": 1,
      "key": "csp_BiLiBiLi",
      "name": "哔哩视频(官方)",
      "quickSearch": 1,
      "searchable": 1,
      "type": 3,
      "ext":{
        "Cookie":"buvid3=45D3DD29-F965-BA9C-4983-289B90BB20A035207infoc; b_nut=1718829634; buvid4=0C238076-23D5-E130-3E47-95221133AE5A35207-024061920-GX2y3RUxqCRC33S%2FdTvfug%3D%3D; b_lsid=1812104B10_194436ED2A5; _uuid=7E5898C3-61023-34E9-59D2-8BED4772346D23957infoc; header_theme_version=CLOSE; enable_web_push=DISABLE; home_feed_column=5; bmg_af_switch=1; bmg_src_def_domain=i0.hdslb.com; bili_ticket=eyJhbGciOiJIUzI1NiIsImtpZCI6InMwMyIsInR5cCI6IkpXVCJ9.eyJleHAiOjE3MzY1NTczMjgsImlhdCI6MTczNjI5ODA2OCwicGx0IjotMX0.42KQOYqptqNncFgEeyWMpYHluLn4VZWx9BVKgsmeuz4; bili_ticket_expires=1736557268; buvid_fp=fe9a4a862f754d1c04b34e642532b90d; SESSDATA=a2fef0b3%2C1751850223%2C19b3b%2A11CjD0SkNv3tWpotN7w-w4Zqn7FZvLFDCfScyJpF7izh6ewsySYNwgilOEl0SSJ3SbLBQSVlp2c1lnRHRNVkE1TzFFNkV1azM2QXRfZ0NCVkJoQmFBX1JSOGJFZW1qWDI5c25PMmJONi1jZFptSHBzbjhoU3hTekg4ZkViODBGR1hEV19NOTIxSFp3IIEC; bili_jct=f5ccea29411255b55fcff696d8d9ccd7; DedeUserID=3546659868903683; DedeUserID__ckMd5=e66f2ad6e25e92fb; sid=o5croxjq; browser_resolution=1482-191; msource=pc_web; deviceFingerprint=3d1cb2df1ab0c91737eb1fc7a3f4f019"
      }
    },
    {
      "api": "csp_Bttoo",
      "filterable": 1,
      "key": "csp_Bttoo",
      "name": "🐞两个BT",
      "quickSearch": 1,
      "searchable": 1,
      "type": 3
    },
    {
      "api": "csp_Dm84",
      "filterable": 1,
      "key": "csp_Dm84",
      "name": "🐞动漫巴士",
      "quickSearch": 1,
      "searchable": 1,
      "type": 3
    },
    {
      "key": "360影视",
      "name": "💘360影视(官)",
      "type": 3,
      "api": "csp_SP360",
      "searchable": 1,
      "quickSearch": 1,
      "filterable": 1,
      "changeable": 0
    },
    {
      "key": "异世界动漫",
      "name": "💘异世界动漫",
      "type": 3,
      "api": "csp_Ysj",
      "searchable": 1,
      "quickSearch": 1,
      "filterable": 1,
      "changeable": 0
    },
    {
      "key": "Anfuns",
      "name": "💘Anfuns",
      "type": 3,
      "api": "csp_Anfuns",
      "searchable": 1,
      "quickSearch": 1,
      "filterable": 0,
      "changeable": 0
    },
    {
      "api": "csp_Ahhhhfs",
      "filterable": 0,
      "key": "csp_Ahhhhfs",
      "name": "Ahhhhfs",
      "quickSearch": 1,
      "searchable": 1,
      "type": 3
    },
    {
      "api": "csp_Aidi",
      "filterable": 0,
      "key": "csp_Aidi",
      "name": "Aidi",
      "quickSearch": 1,
      "searchable": 1,
      "type": 3
    },
    {
      "api": "csp_Anime1",
      "filterable": 0,
      "key": "csp_Anime1",
      "name": "Anime1",
      "quickSearch": 1,
      "searchable": 1,
      "type": 3
    },
    {
      "api": "csp_Ddys",
      "filterable": 0,
      "key": "csp_Ddys",
      "name": "Ddys",
      "quickSearch": 1,
      "searchable": 1,
      "type": 3
    },
    {
      "api": "csp_Imaple",
      "filterable": 0,
      "key": "csp_Imaple",
      "name": "Imaple",
      "quickSearch": 1,
      "searchable": 1,
      "type": 3
    },
    {
      "api": "csp_Lib",
      "filterable": 0,
      "key": "csp_Lib",
      "name": "Lib",
      "quickSearch": 1,
      "searchable": 1,
      "type": 3
    },
    {
      "api": "csp_QingDou",
      "filterable": 0,
      "key": "csp_QingDou",
      "name": "QingDou",
      "quickSearch": 1,
      "searchable": 1,
      "type": 3
    },
    {
      "api": "https://cj.ffzyapi.com/api.php/provide/vod/at/xml/",
      "key": "ffzyapi",
      "name": "非凡资源(切)",
      "quickSearch": 0,
      "searchable": 0,
      "type": 0
    },
    {
      "api": "http://cj.lziapi.com/api.php/provide/vod/",
      "key": "量子资源",
      "name": "量子资源(切)",
      "quickSearch": 1,
      "searchable": 1,
      "type": 1
    },
    {
      "api": "https://collect.wolongzyw.com/api.php/provide/vod/",
      "key": "卧龙采集",
      "name": "卧龙采集(切)",
      "quickSearch": 1,
      "searchable": 1,
      "type": 1
    },
    {
      "api": "https://beiyong.slapibf.com/api.php/provide/vod/?ac=list",
      "key": "森林资源",
      "name": "森林资源(切)",
      "quickSearch": 1,
      "searchable": 1,
      "type": 1
    },
    {
      "api": "https://jyzyapi.com/provide/vod/from/jinyingm3u8/",
      "key": "金鹰资源",
      "name": "金鹰资源(切)",
      "quickSearch": 1,
      "searchable": 1,
      "type": 1
    },
    {
      "key": "csp_AList",
      "name": "🅰AList网盘",
      "type": 3,
      "api": "csp_AList",
      "searchable": 1,
      "quickSearch": 0,
      "filterable": 1,
      "changeable": 0,
      "ext": "https://gitlab.com/mao4284120/js/-/raw/main/sub/Alist.json"
    },
    {
      "api": "csp_Dy555",
      "filterable": 1,
      "key": "csp_555",
      "name": "555",
      "quickSearch": 1,
      "searchable": 1,
      "type": 3
    },
    {
      "api": "csp_BBB",
      "filterable": 1,
      "key": "csp_BBB",
      "name": "哔哩哔哩",
      "quickSearch": 1,
      "searchable": 1,
      "type": 3,
      "ext": "https://www.qiaoji8.com/tvbox/bili.json"
    },
    {
      "key": "本地",
      "name": "💻本地视频",
      "type": 3,
      "api": "csp_LocalFile",
      "playerType": 2,
      "searchable": 0,
      "quickSearch": 0,
      "filterable": 1,
      "type_flag": 0
    },
    {
      "key": "WebDAV",
      "name": "WebDAV",
      "type": 3,
      "api": "csp_WebDAV",
      "searchable": 1,
      "changeable": 0,
      "ext": "https://gitlab.com/mao4284120/js/-/raw/main/sub/webdav.json"
    },
    {
      "key": "Pan666",
      "name": "📜阿里小站",
      "type": 3,
      "api": "csp_Pan666",
      "searchable": 1,
      "filterable": 1,
      "changeable": 0,
      "ext": {}
    },
    {
      "key": "YunPan1",
      "name": "📜云盘资源",
      "type": 3,
      "api": "csp_YunPan1",
      "searchable": 1,
      "filterable": 1,
      "changeable": 0,
      "ext": {
        "cookie":"sl-session=wP4rBxi0dGd7AsXvt6Du7Q==; sl-challenge-server=cloud; sl-waiting-state=done; flarum_session=y22YRdjKOaTUh6w0CFDfhHNcnwHoS3JxEF7Rs5Bf; sl_jwt_session=sckFLJNMdGfogVSuOVyEGQ==; sl_jwt_sign=; sl-waiting-session=3abd64339d9b13f0c2d30b6146dc9c53"
      }
    },
    {
      "key": "玩偶",
      "name": "☁️玩偶哥哥",
      "type": 3,
      "api": "csp_Wogg",
      "searchable": 1,
      "filterable": 1,
      "changeable": 0,
      "ext": {
        "token": "0ac3580008b64f20bc72877bba446e6d",
        "filter": "https://gh-proxy.com/https://raw.githubusercontent.com/FongMi/CatVodSpider/main/json/wogg.json"
      }
    },
    {
      "key": "push_agent",
      "name": "🍭推送",
      "api": "csp_Push",
      "searchable": 0,
      "quickSearch": 0,
      "filterable": 0,
      "type": 3
    },
    {
      "key": "YiSo",
      "name": "易搜",
      "type": 3,
      "api": "csp_YiSo",
      "searchable": 1,
      "filterable": 1
    },
    {
      "api": "http://api.xinlangapi.com/xinlangapi.php/provide/vod/",
      "key": "新浪资源",
      "name": "新浪资源(切)",
      "quickSearch": 1,
      "searchable": 1,
      "type": 1
    },
    {
      "api": "https://caiji.kczyapi.com/api.php/provide/vod/",
      "key": "快车资源",
      "name": "快车资源(切)",
      "quickSearch": 0,
      "searchable": 0,
      "type": 1
    },
    {
      "api": "https://www.hongniuzy2.com/api.php/provide/vod/",
      "key": "红牛资源",
      "name": "红牛资源(切)",
      "quickSearch": 0,
      "searchable": 0,
      "type": 1
    },
    {
      "api": "https://api.ukuapi88.com/api.php/provide/vod/",
      "key": "U酷资源",
      "name": "U酷资源(优)",
      "quickSearch": 1,
      "searchable": 1,
      "type": 1
    },
    {
      "api": "https://p2100.net/api.php/provide/vod/",
      "key": "飘零影院",
      "name": "飘零影院(聚)",
      "quickSearch": 1,
      "searchable": 1,
      "type": 1
    },
    {
      "api": "https://ckzy.me/api.php/provide/vod/",
      "key": "*CK资源",
      "name": "*CK资源",
      "type": 1
    },
    {
      "api": "https://api.wujinapi.com/api.php/provide/vod/",
      "key": "csp_xml___无尽资源",
      "name": "🐝无尽资源",
      "playUrl": "",
      "quickSearch": 1,
      "searchable": 1,
      "type": 1
    },
    {
      "api": "https://api.1080zyku.com/inc/api_mac10.php",
      "key": "1080资源库",
      "name": "1080资源库(飞机)",
      "quickSearch": 0,
      "searchable": 0,
      "type": 1
    },
    {
      "api": "https://api.tiankongapi.com/api.php/provide/vod/",
      "key": "csp_xml___天空资源",
      "name": "🐝天空资源",
      "playUrl": "",
      "quickSearch": 1,
      "searchable": 1,
      "type": 1
    },
    {
      "api": "https://taopianapi.com/cjapi/mc/vod/xml.html",
      "categories": [],
      "key": "淘片資源",
      "name": "淘片資源",
      "playUrl": "",
      "type": 0
    },
    {
      "api": "https://taopianapi.com/cjapi/mc/vod/json.html",
      "key": "淘片资源",
      "name": "淘片资源(优)",
      "quickSearch": 0,
      "searchable": 0,
      "type": 1
    },
    {
      "api": "https://cj.vodimg.top/api.php/provide/vod/",
      "key": "影图",
      "name": "影图(聚)",
      "quickSearch": 1,
      "searchable": 1,
      "type": 1
    },
    {
      "api": "https://lovedan.net/api.php/provide/vod/",
      "key": "艾旦影视",
      "name": "艾旦影视(聚)",
      "quickSearch": 1,
      "searchable": 1,
      "type": 1
    },
    {
      "api": "http://shayuapi.com/api.php/provide/vod/at/xml",
      "key": "*鲨鱼资源",
      "name": "*鲨鱼资源(飞机)",
      "type": 0
    },
    {
      "api": "https://dadiapi.com/api.php/",
      "key": "*大地资源",
      "name": "*大地资源",
      "type": 0
    },
    {
      "api": "https://lbapi9.com/api.php/provide/vod/at/xml",
      "key": "*乐播",
      "name": "*乐播",
      "type": 0
    },
    {
      "api": "https://caiji.semaozy.net/inc/apijson_vod.php",
      "key": "*S猫资源",
      "name": "*S猫资源",
      "quickSearch": 1,
      "searchable": 1,
      "type": 1
    },
    {
      "api": "https://ckzy.me/api.php/provide/vod/",
      "key": "csp_xml___CK资源",
      "name": "🐝CK 资源",
      "playUrl": "",
      "quickSearch": 1,
      "searchable": 1,
      "type": 1
    },
    {
      "api": "https://m3u8.tiankongapi.com/api.php/provide/vod/",
      "key": "csp_xml___天空资源2",
      "name": "🐝天空资源2",
      "playUrl": "",
      "quickSearch": 1,
      "searchable": 1,
      "type": 1
    },
    {
      "api": "http://shayuapi.com/api.php/provide/vod/",
      "categories": [],
      "key": "鲨",
      "name": "鲨(飞机)",
      "playUrl": "",
      "quickSearch": 0,
      "type": 1
    },
    {
      "api": "https://lbapi9.com/api.php/provide/vod/",
      "categories": [],
      "key": "乐",
      "name": "乐",
      "playUrl": "",
      "quickSearch": 0,
      "type": 1
    },
    {
      "api": "https://api.yikanapi.com/api.php/provide/vod/",
      "key": "易看资源",
      "name": "易看资源(切)",
      "quickSearch": 1,
      "searchable": 1,
      "type": 1
    },
    {
      "api": "csp_Hsck",
      "ext": "https://www.seedmm.help",
      "filterable": 0,
      "key": "csp_Hsck",
      "name": "黄色仓库(爬虫)",
      "quickSearch": 1,
      "searchable": 1,
      "type": 3
    },
    {
      "key": "csp_xpath_kuqimv1",
      "name": "🎤酷奇MV",
      "type": 3,
      "api": "csp_XPath",
      "searchable": 0,
      "quickSearch": 0,
      "filterable": 1,
      "ext": "https://gitlab.com/mao4284120/js/-/raw/main/sub/kuqimv.json"
    },
    {
      "api": "csp_AppYsV2",
      "ext": "https://www.69mj.com/api.php/v1.vod",
      "filterable": 1,
      "key": "csp_appysv2_69美剧",
      "name": "69美剧(萝卜)",
      "quickSearch": 1,
      "searchable": 1,
      "type": 3
    },
    {
      "key": "csp_Jianpian",
      "name": "荐片〓蓝²K",
      "type": 3,
      "api": "csp_Jianpian",
      "playerType": 1,
      "searchable": 1,
      "quickSearch": 1,
      "filterable": 1,
      "ext": "https://ownjpykxttjzuhy.jiesiwa.com"
    },
    {
      "key": "索尼资源",
      "name": "📀┃索尼┃影视",
      "type": 1,
      "api": "https://suoniapi.com/api.php/provide/vod/from/snm3u8/",
      "searchable": 0,
      "quickSearch": 0
    },
    {
      "key": "畅梦",
      "name": "💤┃畅梦┃影视",
      "type": 3,
      "api": "http://cf.weixine.net/js/lib/drpy2.min.js",
      "ext": "http://cf.weixine.net/js/changmeng.js"
    },
    {
      "api": "csp_XBiubiu",
      "ext": "https://gitlab.com/mao4284120/js/-/raw/main/sub/斗鱼.json",
      "filterable": 0,
      "key": "csp_biubiu_斗鱼",
      "name": "🐟斗鱼",
      "quickSearch": 0,
      "searchable": 0,
      "type": 3
    },
    {
      "api": "csp_XYQBiu",
      "ext": "https://weixine.net/sub/douyu.json",
      "filterable": 0,
      "key": "csp_XYQBiu_斗鱼",
      "name": "斗鱼",
      "quickSearch": 0,
      "searchable": 0,
      "type": 3
    },
    {
      "api": "csp_XPathMac",
      "ext": "https://gitlab.com/mao4284120/js/-/raw/main/sub/aidi.json",
      "filterable": 0,
      "key": "csp_xpath_aidi",
      "name": "🦋爱迪影视",
      "quickSearch": 1,
      "searchable": 1,
      "type": 3
    },
    {
      "api": "csp_XPath",
      "ext": "https://gitlab.com/mao4284120/js/-/raw/main/sub/135kan.json",
      "filterable": 0,
      "key": "csp_xpath_135kan",
      "name": "135看看(XP 飞机)",
      "quickSearch": 1,
      "searchable": 1,
      "type": 3
    },
    {
      "key": "LIBVIO",
      "name": "🔷LibVio",
      "type": 3,
      "api": "csp_XBPQ",
      "searchable": 1,
      "quickSearch": 1,
      "filterable": 1,
      "ext": "https://gitlab.com/mao4284120/js/-/raw/main/sub/LIBVIO.json"
    },
    {
      "key": "看看剧",
      "name": "💧看看剧",
      "type": 3,
      "api": "csp_XBPQ",
      "searchable": 1,
      "quickSearch": 1,
      "filterable": 1,
      "ext": "https://gitlab.com/mao4284120/js/-/raw/main/sub/kankanju.json"
    },
    {
      "key": "csp_Voflix",
      "name": "🌀Voflix",
      "type": 3,
      "api": "csp_XBPQ",
      "searchable": 1,
      "quickSearch": 1,
      "filterable": 1,
      "ext": "https://gitlab.com/mao4284120/js/-/raw/main/sub/voflix.json"
    },
    {
      "key": "👨‍🌾宝仙HD",
      "name": "👨‍🌾宝仙HD",
      "type": 3,
      "api": "csp_XBPQ",
      "searchable": 1,
      "quickSearch": 1,
      "filterable": 0,
      "ext": "https://gitlab.com/mao4284120/js/-/raw/main/sub/baoxian.json"
    },
    {
      "key": "真不卡",
      "name": "💢真不卡",
      "type": 3,
      "api": "csp_XBPQ",
      "searchable": 1,
      "quickSearch": 1,
      "filterable": 1,
      "ext": "https://gitlab.com/mao4284120/js/-/raw/main/sub/zhenbuka.json",
      "exception": "homeVideo is null\nAttempt to invoke virtual method 'org.json.JSONArray org.json.JSONObject.getJSONArray(java.lang.String)' on a null object reference"
    },
    {
      "key": "csp_XBPQ_Dm84",
      "name": "🚌动漫巴士",
      "type": 3,
      "api": "csp_XBPQ",
      "searchable": 1,
      "quickSearch": 1,
      "filterable": 1,
      "ext": "https://gitlab.com/mao4284120/js/-/raw/main/sub/Dm84.json"
    },
    {
      "key": "非凡资源",
      "name": "🏭非凡资源",
      "type": 3,
      "api": "csp_XBPQ",
      "searchable": 1,
      "quickSearch": 1,
      "filterable": 1,
      "ext": "https://gitlab.com/mao4284120/js/-/raw/main/sub/ffzy.json"
    },
    {
      "key": "saohuo",
      "name": "🎇┃骚火┃影视",
      "type": 3,
      "searchable": 1,
      "quickSearch": 1,
      "playerType": "2",
      "api": "csp_XBPQ",
      "ext": {
        "嗅探词": "m3u8#mp4",
        "分类url": "https://shdy2.com/list/{cateId}-{catePg}.html;;r1dau0",
        "搜索url": "https://shdy2.com/search.php?searchword={wd}",
        "分类": "电影$1#电视剧$2#韩剧$22#美剧$23#动漫$4",
        "搜索数组二次截取": "class=\"v_list\">&&</ul>",
        "搜索数组": "\"v_img\"&&/div>",
        "搜索标题": "title=\"&&\"",
        "搜索副标题": "v_note\"&&</div",
        "数组二次截取": "class=\"v_list\">&&</ul>",
        "数组": "\"v_img\"&&/div>",
        "标题": "title=\"&&\"",
        "副标题": "v_note\"&&</div",
        "跳转播放链接": "<iframe*src=\"&&\""
      },
      "exception": "Search is null"
    },
    {
      "key": "4KHDR",
      "name": "💧4KHDR",
      "type": 3,
      "api": "csp_XYQHikerAL",
      "searchable": 1,
      "quickSearch": 1,
      "filterable": 1,
      "ext": "https://gitlab.com/mao4284120/js/-/raw/main/sub/4KHDR.json"
    },
    {
      "key": "蓝光影院",
      "name": "💧蓝光影院",
      "type": 3,
      "api": "csp_XYQHiker",
      "searchable": 0,
      "quickSearch": 0,
      "filterable": 1,
      "ext": "https://gitlab.com/mao4284120/js/-/raw/main/sub/languang.json"
    },
    {
      "key": "电影盒子",
      "name": "🎞电影盒子",
      "type": 3,
      "api": "csp_XYQHiker",
      "playerType": 2,
      "searchable": 1,
      "quickSearch": 1,
      "filterable": 1,
      "ext": "https://gitlab.com/mao4284120/js/-/raw/main/sub/dianyinghezi.json"
    },
    {
      "key": "独播库",
      "name": "☘️独播库",
      "type": 3,
      "api": "csp_XYQHiker",
      "searchable": 1,
      "quickSearch": 1,
      "filterable": 1,
      "ext": "https://gitlab.com/mao4284120/js/-/raw/main/sub/duboku.json"
    },
    {
      "key": "皮皮鸭",
      "name": "💢皮皮鸭",
      "type": 3,
      "api": "csp_XYQHiker",
      "searchable": 1,
      "quickSearch": 1,
      "filterable": 1,
      "ext": "https://gitlab.com/mao4284120/js/-/raw/main/sub/pipiya.json"
    },
    {
      "api": "csp_spider",
      "filterable": 0,
      "key": "js爬虫",
      "name": "爬虫",
      "quickSearch": 0,
      "searchable": 0,
      "type": 3
    },
    {
      "key": "drpy_js_JRKAN直播",
      "name": "🏀┃JRS┃看球",
      "type": 3,
      "api": "https://gitlab.com/mao4284120/js/-/raw/main/js/lib/drpy2.min.js",
      "ext": "https://gitlab.com/mao4284120/js/-/raw/main/js/jrkan.js"
    },
    {
      "key": "drpy_js_36影视",
      "name": "三六〓资源",
      "type": 3,
      "api": "https://gitlab.com/mao4284120/js/-/raw/main/js/lib/drpy2.min.js",
      "ext": "https://gitlab.com/mao4284120/js/-/raw/main/js/36影视.js"
    },
    {
      "key": "疼疼",
      "name": "腾腾〓资源",
      "type": 3,
      "api": "https://gitlab.com/mao4284120/js/-/raw/main/js/lib/drpy2.min.js",
      "ext": "https://gitlab.com/mao4284120/js/-/raw/main/js/疼疼.js"
    },
    {
      "key": "直播转点播",
      "name": "电视〓直播",
      "type": 3,
      "api": "https://gitlab.com/mao4284120/js/-/raw/main/js/九辰直转点.js",
      "searchable": 0,
      "ext": "https://gitlab.com/mao4284120/js/-/raw/main/js/九辰.json"
    },
    {
      "key": "drpy_js_荐片",
      "name": "荐片〓P2P",
      "type": 3,
      "api": "https://gitlab.com/mao4284120/js/-/raw/main/js/lib/drpy2.min.js",
      "ext": "https://gitlab.com/mao4284120/js/-/raw/main/js/荐片.js",
      "playerType": "1"
    },
    {
      "key": "drpy_js_蘑菇",
      "name": "蘑菇〓影视",
      "type": 3,
      "api": "https://gitlab.com/mao4284120/js/-/raw/main/js/lib/drpy2.min.js",
      "ext": "https://gitlab.com/mao4284120/js/-/raw/main/js/蘑菇.js"
    },
    {
      "key": "百忙无果",
      "name": "芒果〓资源",
      "type": 3,
      "api": "https://gitlab.com/mao4284120/js/-/raw/main/js/lib/drpy2.min.js",
      "ext": "https://gitlab.com/mao4284120/js/-/raw/main/js/百忙无果.js"
    },
    {
      "key": "奇珍异兽",
      "name": "奇艺〓资源",
      "type": 3,
      "api": "https://gitlab.com/mao4284120/js/-/raw/main/js/lib/drpy2.min.js",
      "ext": "https://gitlab.com/mao4284120/js/-/raw/main/js/奇珍异兽.js"
    },
    {
      "key": "悠悠",
      "name": "优酷〓资源",
      "type": 3,
      "api": "https://gitlab.com/mao4284120/js/-/raw/main/js/lib/drpy2.min.js",
      "ext": "https://gitlab.com/mao4284120/js/-/raw/main/js/悠悠.js"
    },
    {
      "key": "csp_Bili",
      "name": "哔哩〓合集",
      "type": 3,
      "api": "csp_Bili",
      "searchable": 1,
      "quickSearch": 1,
      "filterable": 1,
      "ext": {
        "json": "https://gitlab.com/mao4284120/gao/-/raw/master/json/bili.json",
        "type": "帕梅拉#太极拳#广场舞#演唱会",
        "cookie": "buvid3=45D3DD29-F965-BA9C-4983-289B90BB20A035207infoc; b_nut=1718829634; buvid4=0C238076-23D5-E130-3E47-95221133AE5A35207-024061920-GX2y3RUxqCRC33S%2FdTvfug%3D%3D; b_lsid=1812104B10_194436ED2A5; _uuid=7E5898C3-61023-34E9-59D2-8BED4772346D23957infoc; header_theme_version=CLOSE; enable_web_push=DISABLE; home_feed_column=5; bmg_af_switch=1; bmg_src_def_domain=i0.hdslb.com; bili_ticket=eyJhbGciOiJIUzI1NiIsImtpZCI6InMwMyIsInR5cCI6IkpXVCJ9.eyJleHAiOjE3MzY1NTczMjgsImlhdCI6MTczNjI5ODA2OCwicGx0IjotMX0.42KQOYqptqNncFgEeyWMpYHluLn4VZWx9BVKgsmeuz4; bili_ticket_expires=1736557268; buvid_fp=fe9a4a862f754d1c04b34e642532b90d; SESSDATA=a2fef0b3%2C1751850223%2C19b3b%2A11CjD0SkNv3tWpotN7w-w4Zqn7FZvLFDCfScyJpF7izh6ewsySYNwgilOEl0SSJ3SbLBQSVlp2c1lnRHRNVkE1TzFFNkV1azM2QXRfZ0NCVkJoQmFBX1JSOGJFZW1qWDI5c25PMmJONi1jZFptSHBzbjhoU3hTekg4ZkViODBGR1hEV19NOTIxSFp3IIEC; bili_jct=f5ccea29411255b55fcff696d8d9ccd7; DedeUserID=3546659868903683; DedeUserID__ckMd5=e66f2ad6e25e92fb; sid=o5croxjq; browser_resolution=1482-191; msource=pc_web; deviceFingerprint=3d1cb2df1ab0c91737eb1fc7a3f4f019"
      }
    },
    {
      "key": "drpy_js_哔哩影视",
      "name": "哔哩〓弹幕",
      "type": 3,
      "searchable": 1,
      "quickSearch": 1,
      "filterable": 1,
      "api": "https://gitlab.com/mao4284120/js/-/raw/main/js/lib/drpy2.min.js",
      "ext": "https://gitlab.com/mao4284120/js/-/raw/main/js/哔哩影视.js"
    },
    {
      "key": "drpy_js_4K视界",
      "name": "视界〓APP",
      "type": 3,
      "api": "https://gitlab.com/mao4284120/js/-/raw/main/js/lib/drpy2.min.js",
      "ext": "https://gitlab.com/mao4284120/js/-/raw/main/js/4k视界.js"
    },
    {
      "key": "drpy_js_爱看",
      "name": "爱看〓影视",
      "type": 3,
      "api": "https://gitlab.com/mao4284120/js/-/raw/main/js/lib/drpy2.min.js",
      "ext": "https://gitlab.com/mao4284120/js/-/raw/main/js/爱看.js"
    },
    {
      "key": "drpy_js_南瓜影视",
      "name": "南瓜〓影视",
      "type": 3,
      "api": "https://gitlab.com/mao4284120/js/-/raw/main/js/lib/drpy2.min.js",
      "ext": "https://gitlab.com/mao4284120/js/-/raw/main/js/南瓜影视.js"
    },
    {
      "key": "drpy_js_农民影视",
      "name": "农民〓影视",
      "type": 3,
      "api": "https://gitlab.com/mao4284120/js/-/raw/main/js/lib/drpy2.min.js",
      "ext": "https://gitlab.com/mao4284120/js/-/raw/main/js/农民影视.js"
    },
    {
      "key": "drpy_js_MP4US",
      "name": "MP4〓磁力",
      "type": 3,
      "api": "https://gitlab.com/mao4284120/js/-/raw/main/js/lib/drpy2.min.js",
      "ext": "https://gitlab.com/mao4284120/js/-/raw/main/js/mp4us.js",
      "playerType": "1",
      "searchable": 1,
      "quickSearch": 1,
      "changeable": 1
    },
    {
      "key": "drpy_js_海洋听书",
      "name": "海洋〓听书",
      "type": 3,
      "api": "https://gitlab.com/mao4284120/js/-/raw/main/js/lib/drpy2.min.js",
      "ext": "https://gitlab.com/mao4284120/js/-/raw/main/js/海洋听书.js",
      "playerType": "2"
    },
    {
      "key": "drpy_js_六月听书",
      "name": "六月〓听书",
      "type": 3,
      "api": "https://gitlab.com/mao4284120/js/-/raw/main/js/lib/drpy2.min.js",
      "ext": "https://gitlab.com/mao4284120/js/-/raw/main/js/六月听书.js",
      "playerType": "2"
    },
    {
      "key": "drpy_js_有声小说",
      "name": "有声〓听书",
      "type": 3,
      "api": "https://gitlab.com/mao4284120/js/-/raw/main/js/lib/drpy2.min.js",
      "ext": "https://gitlab.com/mao4284120/js/-/raw/main/js/有声小说吧.js",
      "playerType": "2"
    },
    {
      "key": "短剧网",
      "name": "网络〓短剧",
      "type": 3,
      "api": "https://gitlab.com/mao4284120/js/-/raw/main/js/lib/drpy2.min.js",
      "searchable": 1,
      "quickSearch": 1,
      "filterable": 1,
      "ext": "https://gitlab.com/mao4284120/js/-/raw/main/js/短剧网.js"
    },
    {
      "key": "爱奇异",
      "name": "🥝爱奇艺(官)",
      "type": 3,
      "api": "https://gitlab.com/mao4284120/js/-/raw/main/js/lib/drpy2.min.js",
      "ext": "https://gitlab.com/mao4284120/js/-/raw/main/js/aiqiyi.js"
    },
    {
      "key": "优酷",
      "name": "👑优酷(官)",
      "type": 3,
      "api": "https://gitlab.com/mao4284120/js/-/raw/main/js/lib/drpy2.min.js",
      "ext": "https://gitlab.com/mao4284120/js/-/raw/main/js/youku.js"
    },
    {
      "key": "腾讯",
      "name": "🐧腾讯(官)",
      "type": 3,
      "api": "https://gitlab.com/mao4284120/js/-/raw/main/js/lib/drpy2.min.js",
      "ext": "https://gitlab.com/mao4284120/js/-/raw/main/js/tengxun.js"
    },
    {
      "key": "芒果",
      "name": "🥭芒果(官)",
      "type": 3,
      "api": "https://gitlab.com/mao4284120/js/-/raw/main/js/lib/drpy2.min.js",
      "ext": "https://gitlab.com/mao4284120/js/-/raw/main/js/mangguo.js"
    },
    {
      "key": "搜狗",
      "name": "🐼搜狗(官)",
      "type": 3,
      "api": "https://gitlab.com/mao4284120/js/-/raw/main/js/lib/drpy2.min.js",
      "ext": "https://gitlab.com/mao4284120/js/-/raw/main/js/caigou.js"
    },
    {
      "key": "鸭奈飞",
      "name": "🦆鸭奈飞",
      "type": 3,
      "api": "https://gitlab.com/mao4284120/js/-/raw/main/js/lib/drpy2.min.js",
      "ext": "https://gitlab.com/mao4284120/js/-/raw/main/js/yanaifei.js"
    },
    {
      "key": "饭团影视",
      "name": "🍙饭团影视",
      "type": 3,
      "api": "https://gitlab.com/mao4284120/js/-/raw/main/js/lib/drpy2.min.js",
      "searchable": 2,
      "quickSearch": 0,
      "filterable": 0,
      "ext": "https://gitlab.com/mao4284120/js/-/raw/main/js/fantuan.js"
    },
    {
      "key": "101影院",
      "name": "🎞101影院",
      "type": 3,
      "api": "https://gitlab.com/mao4284120/js/-/raw/main/js/lib/drpy2.min.js",
      "ext": "https://gitlab.com/mao4284120/js/-/raw/main/js/l0l.js"
    },
    {
      "key": "素白白",
      "name": "💮素白白",
      "type": 3,
      "api": "https://gitlab.com/mao4284120/js/-/raw/main/js/lib/drpy2.min.js",
      "ext": "https://gitlab.com/mao4284120/js/-/raw/main/js/subaibai.js"
    },
    {
      "key": "csp_Nkdy",
      "name": "⏺南柯电影",
      "type": 3,
      "api": "https://gitlab.com/mao4284120/js/-/raw/main/js/lib/drpy2.min.js",
      "ext": "https://gitlab.com/mao4284120/js/-/raw/main/js/nktv.js"
    },
    {
      "key": "兄弟影视",
      "name": "🍀兄弟影视",
      "type": 3,
      "api": "https://gitlab.com/mao4284120/js/-/raw/main/js/lib/drpy2.min.js",
      "ext": "https://gitlab.com/mao4284120/js/-/raw/main/js/xiongdiyingshi.js"
    },
    {
      "key": "大师兄影视",
      "name": "🍀大师兄影视",
      "type": 3,
      "api": "https://gitlab.com/mao4284120/js/-/raw/main/js/lib/drpy2.min.js",
      "ext": "https://gitlab.com/mao4284120/js/-/raw/main/js/dashixiongyingshi.js"
    },
    {
      "key": "厂长",
      "name": "🏭厂长",
      "type": 3,
      "api": "https://gitlab.com/mao4284120/js/-/raw/main/js/lib/drpy2.min.js",
      "ext": "https://gitlab.com/mao4284120/js/-/raw/main/js/changzhang.js"
    },
    {
      "key": "喜马拉雅",
      "name": "👂喜马拉雅",
      "type": 3,
      "api": "https://gitlab.com/mao4284120/js/-/raw/main/js/lib/drpy2.min.js",
      "ext": "https://gitlab.com/mao4284120/js/-/raw/main/js/ximalaya.js"
    },
    {
      "key": "兔小贝",
      "name": "🐰兔小贝",
      "type": 3,
      "api": "https://gitlab.com/mao4284120/js/-/raw/main/js/lib/drpy2.min.js",
      "searchable": 1,
      "quickSearch": 1,
      "filterable": 1,
      "ext": "https://gitlab.com/mao4284120/js/-/raw/main/js/tuxiaobei.js"
    },
    {
      "key": "虎牙直播",
      "name": "🐯虎牙直播",
      "type": 3,
      "api": "https://gitlab.com/mao4284120/js/-/raw/main/js/lib/drpy2.min.js",
      "searchable": 0,
      "quickSearch": 0,
      "filterable": 1,
      "ext": "https://gitlab.com/mao4284120/js/-/raw/main/js/huyazhibo.js"
    },
    {
      "key": "哔哩直播",
      "name": "🅱️哔哩直播",
      "type": 3,
      "api": "https://gitlab.com/mao4284120/js/-/raw/main/js/lib/drpy2.min.js",
      "searchable": 0,
      "quickSearch": 0,
      "filterable": 1,
      "ext": "https://gitlab.com/mao4284120/js/-/raw/main/js/blzb.js"
    },
    {
      "api": "csp_XPathMacFilter",
      "ext": "https://gitlab.com/mao4284120/js/-/raw/main/sub/libv_2.json",
      "filterable": 1,
      "key": "csp_xpath_libv",
      "name": "🦋Libvio(XPF)",
      "quickSearch": 1,
      "searchable": 1,
      "type": 3
    },
    {
      "api": "csp_XBiubiu",
      "ext": "https://gitlab.com/mao4284120/js/-/raw/main/sub/奇优影院(ns).json",
      "filterable": 0,
      "key": "csp_biubiu_奇优影院ns",
      "name": "🐛奇优影院(NS)",
      "quickSearch": 1,
      "searchable": 1,
      "type": 3
    },
    {
      "api": "csp_XPath",
      "ext": "https://gitlab.com/mao4284120/js/-/raw/main/sub/yinghua.json",
      "filterable": 0,
      "key": "csp_xpath_yinghua",
      "name": "🦋樱花动漫",
      "quickSearch": 1,
      "searchable": 1,
      "type": 3
    },
    {
      "api": "csp_XBiubiu",
      "ext": "https://gitlab.com/mao4284120/js/-/raw/main/sub/555电影.json",
      "filterable": 0,
      "key": "csp_biubiu_555电影",
      "name": "🐛555电影",
      "quickSearch": 1,
      "searchable": 1,
      "type": 3
    },
    {
      "api": "csp_XBiubiu",
      "ext": "https://gitlab.com/mao4284120/js/-/raw/main/sub/克拉TV.json",
      "filterable": 0,
      "key": "csp_biubiu_克拉TV",
      "name": "🐛克拉TV",
      "quickSearch": 1,
      "searchable": 1,
      "type": 3
    },
    {
      "api": "csp_XBiubiu",
      "ext": "https://gitlab.com/mao4284120/js/-/raw/main/sub/骚火电影.json",
      "filterable": 0,
      "key": "csp_biubiu_骚火电影",
      "name": "🐛骚火电影",
      "quickSearch": 1,
      "searchable": 1,
      "type": 3
    },
    {
      "api": "csp_XPath",
      "ext": "https://gitlab.com/mao4284120/js/-/raw/main/sub/yinghua.json",
      "filterable": 0,
      "key": "XP_yhdm",
      "name": "樱花动漫",
      "quickSearch": 1,
      "searchable": 1,
      "type": 3
    },
    {
      "key": "豆瓣",
      "name": "🔍豆瓣荐片",
      "type": 3,
      "api": "https://gitlab.com/mao4284120/js/-/raw/main/js/lib/drpy2.min.js",
      "searchable": 0,
      "quickSearch": 0,
      "filterable": 0,
      "ext": "https://gitlab.com/mao4284120/js/-/raw/main/js/douban.js"
    },
    {
      "api": "http://sdzyapi.com/api.php/provide/vod/",
      "key": "闪电资源",
      "name": "闪电资源(切)",
      "quickSearch": 0,
      "searchable": 0,
      "type": 1
    },
    {
      "api": "http://fhapi9.com/api.php/provide/vod/",
      "categories": [],
      "key": "番",
      "name": "番",
      "playUrl": "",
      "quickSearch": 0,
      "type": 1
    },
    {
      "api": "http://f2dcj6.com/sapi/?ac=videolist",
      "key": "*富二代资源",
      "name": "*富二代资源",
      "type": 0
    },
    {
      "api": "https://api.guangsuapi.com/api.php/provide/vod/",
      "key": "光速资源",
      "name": "光速资源(切)",
      "quickSearch": 1,
      "searchable": 1,
      "type": 1
    },
    {
      "api": "https://www.msnii.com/api/xml.php",
      "categories": [],
      "key": "美少女资源站",
      "name": "美少女资源站",
      "playUrl": "",
      "quickSearch": 0,
      "type": 0
    },
    {
      "api": "https://www.xrbsp.com/api/xml.php",
      "categories": [],
      "key": "淫水机资源站",
      "name": "淫水机资源站",
      "playUrl": "",
      "quickSearch": 0,
      "type": 0
    },
    {
      "api": "https://www.gdlsp.com/api/xml.php",
      "categories": [],
      "key": "香奶儿资源站",
      "name": "香奶儿资源站",
      "playUrl": "",
      "quickSearch": 0,
      "type": 0
    },
    {
      "api": "https://www.kxgav.com/api/xml.php",
      "categories": [],
      "key": "白嫖资源站",
      "name": "白嫖资源站",
      "playUrl": "",
      "quickSearch": 0,
      "type": 0
    },
    {
      "api": "http://www.afasu.com/api/xml.php",
      "categories": [],
      "key": "小湿妹资源站",
      "name": "小湿妹资源站(飞机)",
      "playUrl": "",
      "quickSearch": 0,
      "type": 0
    },
    {
      "api": "https://www.pgxdy.com/api/xml.php",
      "key": "*黄AV资源",
      "name": "*黄AV资源(飞机)",
      "type": 0
    },
    {
      "api": "csp_CMS",
      "key": "csp_xml___樱花资源2",
      "name": "🐝樱花资源2",
      "playUrl": "",
      "quickSearch": 1,
      "searchable": 1,
      "type": 3,
      "ext":"https://m3u8.apiyhzy.com/api.php/provide/vod/"
    },
    {
      "api": "csp_CMS",
      "key": "新浪资源",
      "name": "新浪资源(切)",
      "quickSearch": 1,
      "searchable": 1,
      "type": 3,
      "ext":"http://api.xinlangapi.com/xinlangapi.php/provide/vod/"
    }
  ],
  "lives": [
    {
      "group": "redirect",
      "channels": [
        {
          "name": "live",
          "type": 0,
          "playerType": 1,
          "url": "http://我不是.肥猫.love:63/TV/tvzb.txt",
          "ua": "okhttp/3.12.13",
          "epg": "http://epg.51zmt.top:8000/api/diyp/?ch={name}&date={date}",
          "logo": "https://epg.112114.xyz/logo/{name}.png"
        },
        {
          "name": "视界",
          "urls": [
            "proxy://do=live&type=txt&ext=aHR0cHM6Ly9naXRsYWIuY29tL21hbzQyODQxMjAvanMvLS9yYXcvbWFpbi9oc2NrMS50eHQ="
          ]
        }
      ]
    }
  ],
  "parses": [
    {
      "name": "解析聚合",
      "type": 3,
      "url": "Demo"
    },
    {
      "name": "Json并发",
      "type": 2,
      "url": "Parallel"
    },
    {
      "name": "Json轮询",
      "type": 2,
      "url": "Sequence"
    },
    {
      "name": "官解6",
      "type": 1,
      "url": "https://wuzei.serv00.net/jx/kk.php?url="
    },
    {
      "name": "官解7",
      "type": 1,
      "url": "https://wuzei.serv00.net/jx/bl.php?v="
    },
    {
      "name": "嗅探5",
      "type": 0,
      "url": "https://www.kkvip2022.com/vip/jiexi3/?url="
    },
    {
      "name": "嗅探8",
      "type": 0,
      "url": "https://www.yemu.xyz/?url="
    },
    {
      "name": "嗅探10",
      "type": 0,
      "url": "https://jx.0ry.cn/?url="
    },
    {
      "name": "夜幕3",
      "type": 0,
      "ext": {
        "flag": [
          "pptv",
          "PPTV",
          "qq",
          "腾讯",
          "qiyi",
          "爱奇艺",
          "奇艺",
          "youku",
          "优酷",
          "mgtv",
          "芒果",
          "xigua",
          "西瓜",
          "letv",
          "乐视"
        ]
      },
      "url": "https://www.yemu.xyz/v/d.php?url="
    },
    {
      "name": "云析",
      "type": 0,
      "ext": {
        "flag": [
          "yparse",
          "1905",
          "pptv",
          "PPTV",
          "migu",
          "咪咕",
          "sohu",
          "搜狐",
          "letv",
          "乐视",
          "qq",
          "腾讯",
          "qiyi",
          "爱奇艺",
          "奇艺",
          "youku",
          "优酷",
          "mgtv",
          "芒果",
          "xigua",
          "西瓜"
        ]
      },
      "url": "https://yparse.ik9.cc/index.php?url="
    },
    {
      "name": "8090",
      "type": 0,
      "ext": {
        "flag": [
          "pptv",
          "PPTV",
          "qq",
          "腾讯",
          "qiyi",
          "爱奇艺",
          "奇艺",
          "youku",
          "优酷",
          "mgtv",
          "芒果",
          "xigua",
          "西瓜",
          "letv",
          "乐视",
          "1905"
        ]
      },
      "url": "https://www.8090g.cn/?url="
    },
    {
      "name": "Ckplayer",
      "type": 0,
      "ext": {
        "flag": [
          "pptv",
          "PPTV",
          "qq",
          "腾讯",
          "qiyi",
          "爱奇艺",
          "奇艺",
          "youku",
          "优酷",
          "mgtv",
          "芒果",
          "xigua",
          "西瓜",
          "letv",
          "乐视",
          "1905"
        ]
      },
      "url": "https://www.ckplayer.vip/jiexi/?url="
    },
    {
      "name": "M3U8",
      "type": 0,
      "ext": {
        "flag": [
          "pptv",
          "PPTV",
          "qq",
          "腾讯",
          "qiyi",
          "爱奇艺",
          "奇艺",
          "youku",
          "优酷",
          "mgtv",
          "芒果",
          "xigua",
          "西瓜",
          "letv",
          "乐视",
          "1905"
        ]
      },
      "url": "https://jx.m3u8.tv/jiexi/?url="
    },
    {
      "name": "PM",
      "type": 0,
      "ext": {
        "flag": [
          "pptv",
          "PPTV",
          "qq",
          "腾讯",
          "qiyi",
          "爱奇艺",
          "奇艺",
          "youku",
          "优酷",
          "mgtv",
          "芒果",
          "xigua",
          "西瓜",
          "letv",
          "乐视"
        ]
      },
      "url": "https://www.playm3u8.cn/jiexi.php?url="
    },
    {
      "name": "zui",
      "type": 0,
      "ext": {
        "flag": [
          "pptv",
          "PPTV",
          "qq",
          "腾讯",
          "qiyi",
          "爱奇艺",
          "奇艺",
          "youku",
          "优酷",
          "mgtv",
          "芒果",
          "letv",
          "乐视"
        ]
      },
      "url": "https://jx.zui.cm/?url="
    },
    {
      "name": "虾米",
      "type": 0,
      "ext": {
        "flag": [
          "pptv",
          "PPTV",
          "qq",
          "腾讯",
          "qiyi",
          "爱奇艺",
          "奇艺",
          "youku",
          "优酷",
          "mgtv",
          "芒果",
          "letv",
          "乐视",
          "1905"
        ]
      },
      "url": "https://jx.xmflv.com/?url="
    },
    {
      "name": "冰豆解析",
      "type": 0,
      "url": "https://api.qianqi.net/vip/?url="
    },
    {
      "name": "冰豆",
      "type": 0,
      "url": "https://bd.jx.cn/?url="
    },
    {
      "name": "解122",
      "type": 0,
      "ext": {
        "flag": [
          "pptv",
          "PPTV",
          "qq",
          "腾讯",
          "qiyi",
          "爱奇艺",
          "奇艺",
          "youku",
          "优酷",
          "mgtv",
          "芒果",
          "xigua",
          "西瓜",
          "letv",
          "乐视",
          "1905"
        ]
      },
      "url": "https://www.pangujiexi.com/pangu/?url="
    },
    {
      "name": "夜幕1",
      "type": 0,
      "ext": {
        "flag": [
          "pptv",
          "PPTV",
          "xigua",
          "西瓜",
          "qq",
          "腾讯",
          "qiyi",
          "爱奇艺",
          "奇艺",
          "youku",
          "优酷",
          "mgtv",
          "芒果"
        ]
      },
      "url": "https://www.yemu.xyz/v/c.php?url="
    },
    {
      "name": "解15",
      "type": 0,
      "url": "https://jx.xmflv.cc/?url="
    },
    {
      "name": "973",
      "type": 0,
      "url": "https://jx.973973.xyz/?url="
    },
    {
      "name": "playerjy/B站",
      "type": 0,
      "ext": {
        "flag": [
          "qq",
          "腾讯",
          "qiyi",
          "爱奇艺",
          "奇艺",
          "letv",
          "乐视",
          "bilibili",
          "哔哩哔哩",
          "哔哩"
        ]
      },
      "url": "https://jx.playerjy.com/?url="
    },
    {
      "name": "180",
      "type": 0,
      "url": "https://jx.000180.top/jx/?url="
    },
    {
      "name": "解45",
      "type": 0,
      "url": "https://help.siwazywcdn2.com:5278/m3u8.php?url="
    },
    {
      "name": "解49",
      "type": 0,
      "url": "https://player.77lehuo.com/aliplayer/?url="
    },
    {
      "name": "解89",
      "type": 0,
      "url": "https://api.qianqi.net/vip/?url="
    },
    {
      "name": "解95",
      "type": 0,
      "url": "https://660e.com/?url="
    }
  ],
  "flags": [
    "youku",
    "qq",
    "iqiyi",
    "qiyi",
    "letv",
    "sohu",
    "tudou",
    "pptv",
    "mgtv",
    "wasu",
    "bilibili"
  ],
  "badVideos": [
    "https://json.legendwhb.cn/data/1658315755.m3u8"
  ],
  "ijk": [
    {
      "group": "软解码",
      "options": [
        {
          "category": 4,
          "name": "opensles",
          "value": "0"
        },
        {
          "category": 4,
          "name": "overlay-format",
          "value": "842225234"
        },
        {
          "category": 4,
          "name": "framedrop",
          "value": "1"
        },
        {
          "category": 4,
          "name": "soundtouch",
          "value": "1"
        },
        {
          "category": 4,
          "name": "start-on-prepared",
          "value": "1"
        },
        {
          "category": 1,
          "name": "http-detect-range-support",
          "value": "0"
        },
        {
          "category": 1,
          "name": "fflags",
          "value": "fastseek"
        },
        {
          "category": 2,
          "name": "skip_loop_filter",
          "value": "48"
        },
        {
          "category": 4,
          "name": "reconnect",
          "value": "1"
        },
        {
          "category": 4,
          "name": "max-buffer-size",
          "value": "5242880"
        },
        {
          "category": 4,
          "name": "enable-accurate-seek",
          "value": "0"
        },
        {
          "category": 4,
          "name": "mediacodec",
          "value": "0"
        },
        {
          "category": 4,
          "name": "mediacodec-auto-rotate",
          "value": "0"
        },
        {
          "category": 4,
          "name": "mediacodec-handle-resolution-change",
          "value": "0"
        },
        {
          "category": 4,
          "name": "mediacodec-hevc",
          "value": "0"
        }
      ]
    },
    {
      "group": "硬解码",
      "options": [
        {
          "category": 4,
          "name": "opensles",
          "value": "0"
        },
        {
          "category": 4,
          "name": "overlay-format",
          "value": "842225234"
        },
        {
          "category": 4,
          "name": "framedrop",
          "value": "1"
        },
        {
          "category": 4,
          "name": "soundtouch",
          "value": "1"
        },
        {
          "category": 4,
          "name": "start-on-prepared",
          "value": "1"
        },
        {
          "category": 1,
          "name": "http-detect-range-support",
          "value": "0"
        },
        {
          "category": 1,
          "name": "fflags",
          "value": "fastseek"
        },
        {
          "category": 2,
          "name": "skip_loop_filter",
          "value": "48"
        },
        {
          "category": 4,
          "name": "reconnect",
          "value": "1"
        },
        {
          "category": 4,
          "name": "max-buffer-size",
          "value": "5242880"
        },
        {
          "category": 4,
          "name": "enable-accurate-seek",
          "value": "0"
        },
        {
          "category": 4,
          "name": "mediacodec",
          "value": "1"
        },
        {
          "category": 4,
          "name": "mediacodec-auto-rotate",
          "value": "1"
        },
        {
          "category": 4,
          "name": "mediacodec-handle-resolution-change",
          "value": "1"
        },
        {
          "category": 4,
          "name": "mediacodec-hevc",
          "value": "1"
        }
      ]
    }
  ],
  "rules" : [
    {
        "name": "暴风",
        "hosts": [
            "bfzy",
            "bfbfvip",
            "bfengbf"
        ],
        "regex": [
            "#EXTINF.*?\\s+.*?adjump.*?\\.ts"
        ]
    },
    {
        "name": "牛牛",
        "hosts": [
            "qdhdcate"
        ],
        "regex": [
            "#EXTINF.*?\\s+.*?\\/yyv10\\/ts.*?\\.ts"
        ]
    },
    {
        "name": "量子",
        "hosts": [
            "vip.lz",
            "v.lz",
            "hd.lz",
            ".cdnlz"
        ],
        "regex": [
            "#EXT-X-DISCONTINUITY\\r*\\n*#EXTINF:7\\.166667,[\\s\\S]*?#EXT-X-DISCONTINUITY",
            "#EXT-X-DISCONTINUITY\\r*\\n*#EXTINF:4\\.066667,[\\s\\S]*?#EXT-X-DISCONTINUITY",
            "#EXT-X-DISCONTINUITY\\r*\\n*#EXTINF:6\\.933333,[\\s\\S]*?#EXT-X-DISCONTINUITY",
             "#EXT-X-DISCONTINUITY\\r*\\n*#EXTINF:6\\.666667,[\\s\\S]*?#EXT-X-DISCONTINUITY",
            "17.19"
        ]
    },
    {
        "name": "非凡",
        "hosts": [
            "vip.ffzy",
            "hd.ffzy",
            "super.ffzy"
        ],
        "regex": [
            "#EXT-X-DISCONTINUITY\\r*\\n*#EXTINF:6\\.400000,[\\s\\S]*?#EXT-X-DISCONTINUITY",
            "#EXT-X-DISCONTINUITY\\r*\\n*#EXTINF:6\\.666667,[\\s\\S]*?#EXT-X-DISCONTINUITY",
            "#EXTINF.*?\\s+.*?1171(057).*?\\.ts",
            "#EXTINF.*?\\s+.*?6d7b(077).*?\\.ts",
            "#EXTINF.*?\\s+.*?6718a(403).*?\\.ts",
            "17.99",
            "14.45"
        ]
    },
    {
        "name": "索尼",
        "hosts": [
            "suonizy"
        ],
        "regex": [
            "#EXT-X-DISCONTINUITY\\r*\\n*#EXTINF:1\\.000000,[\\s\\S]*?#EXT-X-DISCONTINUITY",
            "#EXTINF.*?\\s+.*?p1ayer.*?\\.ts",
            "#EXTINF.*?\\s+.*?\\/video\\/original.*?\\.ts"
        ]
    },
    {
        "name": "快看",
        "hosts": [
            "kuaikan"
        ],
        "regex": [
            "#EXT-X-KEY:METHOD=NONE\\r*\\n*#EXTINF:5,[\\s\\S]*?#EXT-X-DISCONTINUITY",
            "#EXT-X-KEY:METHOD=NONE\\r*\\n*#EXTINF:2\\.4,[\\s\\S]*?#EXT-X-DISCONTINUITY",
            "#EXT-X-KEY:METHOD=NONE\\r*\\n*#EXTINF:1\\.467,[\\s\\S]*?#EXT-X-DISCONTINUITY"
        ]
    },
    {
        "name": "leshiyun",
        "hosts": [
            "leshiyuncdn"
        ],
        "regex": [
            "15.92"
        ]
    },
    {
        "name": "1080zyk",
        "hosts": [
            "high24-playback",
            "high20-playback"
        ],
        "regex": [
            "16.63"
        ]
    },
    {
        "name": "555DM",
        "hosts": [
            "cqxfjz"
        ],
        "regex": [
            "10.56"
        ]
    },
    {
        "name": "海外看",
        "hosts": [
            "haiwaikan"
        ],
        "regex": [
            "10.0099",
            "10.3333",
            "16.0599",
            "8.1748",
            "10.85"
        ]
    }
],
  "ads": [
    "mimg.0c1q0l.cn",
    "www.googletagmanager.com",
    "www.google-analytics.com",
    "mc.usihnbcq.cn",
    "mg.g1mm3d.cn",
    "mscs.svaeuzh.cn",
    "cnzz.hhttm.top",
    "tp.vinuxhome.com",
    "cnzz.mmstat.com",
    "www.baihuillq.com",
    "s23.cnzz.com",
    "z3.cnzz.com",
    "c.cnzz.com",
    "stj.v1vo.top",
    "z12.cnzz.com",
    "img.mosflower.cn",
    "tips.gamevvip.com",
    "ehwe.yhdtns.com",
    "xdn.cqqc3.com",
    "www.jixunkyy.cn",
    "sp.chemacid.cn",
    "hm.baidu.com",
    "s9.cnzz.com",
    "z6.cnzz.com",
    "um.cavuc.com",
    "mav.mavuz.com",
    "wofwk.aoidf3.com",
    "z5.cnzz.com",
    "xc.hubeijieshikj.cn",
    "tj.tianwenhu.com",
    "xg.gars57.cn",
    "k.jinxiuzhilv.com",
    "cdn.bootcss.com",
    "ppl.xunzhuo123.com",
    "xomk.jiangjunmh.top",
    "img.xunzhuo123.com",
    "z1.cnzz.com",
    "s13.cnzz.com",
    "xg.huataisangao.cn",
    "z7.cnzz.com",
    "xg.huataisangao.cn",
    "z2.cnzz.com",
    "s96.cnzz.com",
    "q11.cnzz.com",
    "thy.dacedsfa.cn",
    "xg.whsbpw.cn",
    "s19.cnzz.com",
    "z8.cnzz.com",
    "s4.cnzz.com",
    "f5w.as12df.top",
    "ae01.alicdn.com",
    "www.92424.cn",
    "k.wudejia.com",
    "vivovip.mmszxc.top",
    "qiu.xixiqiu.com",
    "cdnjs.hnfenxun.com",
    "cms.qdwght.com"
  ],
  "spider": "https://gitlab.com/mao4284120/js/-/raw/main/jar/custom_spider.jar?raw=true;md5;78d5689ddb090d78548b5ee194082b7c"
}