{
    "author":"bill",
    "ua": "",
    "homeUrl": "https://d.dcmovie.top/api.php/vod/type",
    "dcPlayUrl": "true",
    "cateManual": {"推荐":"推荐","电影": "电影","电视剧": "电视剧","综艺":"综艺","动漫": "动漫","纪录片": "纪录片","少儿":"少儿"},
    "homeVideoUrl":"https://d.dcmovie.top/api.php/vod/like_list?pg=1",
    "homeVodNode": "$.list[*]",
    "homeVodName": "$.vod_name",
    "homeVodId": "$.vod_id",
    "homeVodIdR":"\\/(\\w+)$",
    "homeVodImg": "$.vod_pic",
    "homeVodMark": "$.vod_remarks",
    "cateUrl": "https://d.dcmovie.top/api.php/vod/list?state=@get:{cateId}&class=全部&area=全部&year=全部&version=全部&pg=@get:{catePg}",
    "cateVodNode": "$.data.list[*]",
    "cateVodName": "$.vod_name",
    "cateVodId": "$.vod_id",
    "cateVodIdR":"\\/(\\w+)$",
    "cateVodImg": "$.vod_pic",
    "cateVodMark": "$.vod_remarks",
    "dtUrl": "https://d.dcmovie.top/api.php/vod/detail2,{\"method\":\"POST\",\"body\":\"uni_code={{java.base64EncodeStr(java.randomUUID())}}&ac=detail&ids=@get:{vid}&token=\"}",
    "dtNode": "$",
    "dtName": "$.data.vod_name",
    "dtImg": "$.data.vod_pic",
    "dtCate": "$.data.vod_class",
    "dtYear": "$.data.vod_year",
    "dtArea": "$.data.vod_area",
    "dtMark": "$.data.vod_remarks",
    "dtActor": "$.data.vod_actor",
    "dtDirector": "$.data.vod_director",
    "dtDesc": "$.data.vod_content",
    "dtFromNode": "$.data.vod_play_from@js:java.split(result,'$$$')",
    "dtFromName": "@js:result",
    "dtUrlNode": "$.data.vod_play_url@js:java.split(result,'$$$')",
    "dtUrlSubNode": "@js:result.split('#')",
    "dtUrlId": "@js:result.split('$')[1]",
    "dtUrlName": "@js:result.split('$')[0]",
    "playUrl": "@get:{playUrl}",
    "playUa": "",
    "searchUrl": "https://d.dcmovie.top/api.php/vod/search?keywords=@get:{wd}&page=1&type=1",
    "scVodNode": "$.list[*]",
    "scVodName": "$.vod_name",
    "scVodId": "$.vod_id",
    "scVodImg": "$.vod_pic",
    "scVodMark": "$.vod_remarks"
  }