{
    "ua":"Mozilla/5.0 (Linux; Android 10; Redmi Note 7 Build/QKQ1.190910.002; wv) AppleWebKit/537.36 (KHTML, like Gecko) Version/4.0 Chrome/83.0.4103.101 Safari/537.36",
    "author":"bill",
    "dcPlayUrl": "true",
    "cateManual": {"电影": "1","剧集": "2","动漫": "4","综艺": "3","纪录片":"5"},
    "homeVodNode": "@js:cipher=java.get('cipher');cipherRsa=java.get('cipherRsa');key=cipherRsa.decryptStr(JSON.parse(result).ticket,PublicKey);cipherKey=java.createSymmetricCrypto(\"AES/CBC/PKCS7Padding\",key.substring(0,16),key.substring(16,32));content=cipherKey.decryptStr(JSON.parse(result).body);java.setContent(content);java.getElements('$.subGenres[0:].video[*]')",
    "homeVodName": "$.name",
    "homeVodId": "@get:{homeUrl}/api/v1/video/play/{{$.id}}.do",
    "homeVodImg": "$.pic",
    "homeVodMark": "$.progress||$.scroe",
    "homeVideoUrl":"@js:cipher=java.get('cipher');cipherRsa=java.get('cipherRsa');t=String(parseInt(new Date().getTime()/1000));token=java.md5Encode(\"1000300001dc431681b806089dac1153fb13960f874\"+t+\"notice\");sign=java.md5Encode(\"1000300001dc431681b806089dac1153fb13960f87115\"+t+\"notice\");param={\"appId\":\"1000300001\",\"id\":115,\"sign\":sign,\"timestamp\":t};ticket=java.get('ticket');body=cipher.encryptBase64(JSON.stringify(param,[\"appId\",\"id\", \"sign\", \"timestamp\"]));'http://ctlook.facaishiyi.com/api/v1/user/genre/115.do,'+JSON.stringify({headers:{\"appId\":\"1000300001\",\"User-Agent\":\"okhttp/5.0.0-alpha.2\",\"version\":\"4\",\"timestamp\":t,\"token\":token},body:{body:body,ticket:ticket},method:'POST'});",
    "cateUrl": "@js:cipher=java.get('cipher');cipherRsa=java.get('cipherRsa');page=java.get('catePg');pageSize=18;tid=java.get('cateId');tagId=java.get('class');tagId=tagId||0;areaId=java.get('area');areaId=areaId||0;yearId=java.get('year');yearId=yearId||0;t=String(parseInt(new Date().getTime()/1000));token=java.md5Encode(\"1000300001dc431681b806089dac1153fb13960f874\"+t+\"notice\");sign=java.md5Encode(\"1000300001dc431681b806089dac1153fb13960f87\"+page+pageSize+tid+tagId+areaId+yearId+t+\"notice\");param={\"appId\":\"1000300001\",\"typeId\":tid,\"areaId\":areaId,\"tagId\":tagId,\"yearId\":yearId,\"page\":page,\"pageSize\":pageSize,\"sign\":sign,\"timestamp\":t};ticket=java.get('ticket');body=cipher.encryptBase64(JSON.stringify(param,['appId', 'typeId', 'areaId', 'tagId', 'yearId', 'page', 'pageSize', 'sign', 'timestamp']));'http://ctlook.facaishiyi.com/api/v1/search/video.do,'+JSON.stringify({headers:{\"appId\":\"1000300001\",\"User-Agent\":\"okhttp/5.0.0-alpha.2\",\"version\":\"4\",\"timestamp\":t,\"token\":token},body:{body:body,ticket:ticket},method:'POST'});",
    "cateVodNode": "$.results[*]",
    "cateVodName": "$.name",
    "cateVodId": "@get:{homeUrl}/api/v1/video/play/{{$.id}}.do",
    "cateVodImg": "$.pic",
    "cateVodMark": "$.progress||$.scroe",
    "pageNode":"@js:cipher=java.get('cipher');cipherRsa=java.get('cipherRsa');key=cipherRsa.decryptStr(JSON.parse(result).ticket,PublicKey);cipherKey=java.createSymmetricCrypto(\"AES/CBC/PKCS7Padding\",key.substring(0,16),key.substring(16,32));content=cipherKey.decryptStr(JSON.parse(result).body);java.setContent(content);java.getElements('$')",
    "page":"$.page",
    "pageCount":"@js:String(parseInt(java.getString('$.count',result,false)/18))",
    "dtUrl": "@js:cipher=java.get('cipher');cipherRsa=java.get('cipherRsa');t=String(parseInt(new Date().getTime()/1000));token=java.md5Encode(\"1000300001dc431681b806089dac1153fb13960f874\"+t+\"notice\");vid=java.get('vid');vod_id=vid.match(/(\\w+).do/)[1];sign=java.md5Encode(\"1000300001dc431681b806089dac1153fb13960f87\"+vod_id+t+\"notice\");param={\"appId\":\"1000300001\",\"id\":vod_id,\"sign\":sign,\"timestamp\":t};ticket=java.get('ticket');body=cipher.encryptBase64(JSON.stringify(param,[\"appId\",\"id\", \"sign\", \"timestamp\"]));vid+','+JSON.stringify({headers:{\"appId\":\"1000300001\",\"User-Agent\":\"okhttp/5.0.0-alpha.2\",\"version\":\"4\",\"timestamp\":t,\"token\":token},body:{body:body,ticket:ticket},method:'POST'});",
    "dtNode": "@js:cipher=java.get('cipher');cipherRsa=java.get('cipherRsa');key=cipherRsa.decryptStr(JSON.parse(result).ticket,PublicKey);cipherKey=java.createSymmetricCrypto(\"AES/CBC/PKCS7Padding\",key.substring(0,16),key.substring(16,32));content=cipherKey.decryptStr(JSON.parse(result).body);java.setContent(content);java.getElements('$.data')",
    "dtName": "$.name@put:{'vodId':'$.id'}",
    "dtImg": "$.pic",
    "dtCate": "$.class",
    "dtYear": "$.year",
    "dtArea": "$.area",
    "dtMark": "$.progress",
    "dtActor": "$.actor",
    "dtDirector": "$.director",
    "dtDesc": "$.content##<[^>]+>",
    "dtFromNode": "@js:cipher=java.createSymmetricCrypto(\"AES/CBC/PKCS5Padding\",\"5551e2a82a21a9a1\",\"a586c5236206a2cb\");newPlayback=java.getString('$.data.newPlayback');content=cipher.decryptStr(newPlayback);java.setContent(content);java.getElements('$.[*].name')",
    "dtFromName": "@js:result",
    "dtUrlNode": "$.[*]",
    "dtUrlSubNode": "$.episodes",
    "dtUrlId": "$.url",
    "dtUrlName": "$.title",
    "playUrl": "@get:{playUrl}",
    "searchUrl": "@js:cipher=java.get('cipher');cipherRsa=java.get('cipherRsa');t=String(parseInt(new Date().getTime()/1000));token=java.md5Encode(\"1000300001dc431681b806089dac1153fb13960f874\"+t+\"notice\");wd=java.get('wd');sign=java.md5Encode(\"1000300001dc431681b806089dac1153fb13960f87112\"+wd+t+\"notice\");param={\"appId\":\"1000300001\",\"keyword\":wd,\"page\":page,\"pageSize\":pageSize,\"sign\":sign,\"timestamp\":t};ticket=java.get('ticket');body=cipher.encryptBase64(JSON.stringify(param,[\"appId\", \"sign\", \"timestamp\"]));'http://ctlook.facaishiyi.com/api/v1/search/page.do,'+JSON.stringify({headers:{\"appId\":\"1000300001\",\"User-Agent\":\"okhttp/5.0.0-alpha.2\",\"version\":\"4\",\"timestamp\":t,\"token\":token},body:{body:body,ticket:ticket},method:'POST'});",
    "scVodNode": "$.results[*]",
    "scVodName": "$.name",
    "scVodId": "@get:{homeUrl}/api/v1/video/play/{{$.id}}.do",
    "scVodImg": "$.pic",
    "scVodMark": "$.progress||$.scroe",
    "filterRule":{
      "filterUrl":"@js:cipher=java.get('cipher');cipherRsa=java.get('cipherRsa');t=String(parseInt(new Date().getTime()/1000));token=java.md5Encode(\"1000300001dc431681b806089dac1153fb13960f874\"+t+\"notice\");sign=java.md5Encode(\"1000300001dc431681b806089dac1153fb13960f87\"+t+\"notice\");param={\"appId\":\"1000300001\",\"sign\":sign,\"timestamp\":t};ticket=java.get('ticket');body=cipher.encryptBase64(JSON.stringify(param,[\"appId\", \"sign\", \"timestamp\"]));'http://ctlook.facaishiyi.com/api/v1/user/genres.do,'+JSON.stringify({headers:{\"appId\":\"1000300001\",\"User-Agent\":\"okhttp/5.0.0-alpha.2\",\"version\":\"4\",\"timestamp\":t,\"token\":token},body:{body:body,ticket:ticket},method:'POST'});",
      "rules":[
        {
          "filterNode":"@js:cipher=java.get('cipher');cipherRsa=java.get('cipherRsa');key=cipherRsa.decryptStr(JSON.parse(result).ticket,PublicKey);cipherKey=java.createSymmetricCrypto(\"AES/CBC/PKCS7Padding\",key.substring(0,16),key.substring(16,32));content=cipherKey.decryptStr(JSON.parse(result).body);java.setContent(content);java.getElements('$.genres')",
          "filterName":"$.typeId",
          "filterId":"@js:tid=java.getString('$.typeId',result,false);cipher=java.get('cipher');cipherRsa=java.get('cipherRsa');t=String(parseInt(new Date().getTime()/1000));token=java.md5Encode(\"1000300001dc431681b806089dac1153fb13960f874\"+t+\"notice\");sign=java.md5Encode(\"1000300001dc431681b806089dac1153fb13960f87\"+tid+t+\"notice\");param={\"appId\":\"1000300001\",\"tid\":tid,\"sign\":sign,\"timestamp\":t};ticket=java.get('ticket');body=cipher.encryptBase64(JSON.stringify(param,[\"appId\",\"tid\", \"sign\", \"timestamp\"]));token=java.md5Encode(\"1000300001dc431681b806089dac1153fb13960f874\"+t+\"notice\");'http://ctlook.facaishiyi.com/api/v1/search/category.do,'+JSON.stringify({headers:{\"appId\":\"1000300001\",\"User-Agent\":\"okhttp/5.0.0-alpha.2\",\"version\":\"4\",\"timestamp\":t,\"token\":token},body:{body:body,ticket:ticket},method:'POST'});",
          "filterSubName":"$.name",
          "filterSubId":"$.typeId"
        },
        {
          "filterNode":"@js:cipher=java.get('cipher');cipherRsa=java.get('cipherRsa');key=cipherRsa.decryptStr(JSON.parse(result).ticket,PublicKey);cipherKey=java.createSymmetricCrypto(\"AES/CBC/PKCS7Padding\",key.substring(0,16),key.substring(16,32));content=cipherKey.decryptStr(JSON.parse(result).body);java.setContent(content);java.getElements('$')",
          "filterSubNode":"$.tags",
          "filterName":"$.name",
          "filterSubName":"@js:c=java.getString('$.tags');c=c!=''?'剧情':''",
          "filterSubId":"@js:'class'",
          "filterId":"$.id"
        },
        {
          "filterNode":"@js:cipher=java.get('cipher');cipherRsa=java.get('cipherRsa');key=cipherRsa.decryptStr(JSON.parse(result).ticket,PublicKey);cipherKey=java.createSymmetricCrypto(\"AES/CBC/PKCS7Padding\",key.substring(0,16),key.substring(16,32));content=cipherKey.decryptStr(JSON.parse(result).body);java.setContent(content);java.getElements('$')",
          "filterSubNode":"$.areas",
          "filterName":"$.name",
          "filterSubName":"@js:c=java.getString('$.areas');c=c!=''?'地区':''",
          "filterSubId":"@js:'area'",
          "filterId":"$.id"
        },
        {
          "filterNode":"@js:cipher=java.get('cipher');cipherRsa=java.get('cipherRsa');key=cipherRsa.decryptStr(JSON.parse(result).ticket,PublicKey);cipherKey=java.createSymmetricCrypto(\"AES/CBC/PKCS7Padding\",key.substring(0,16),key.substring(16,32));content=cipherKey.decryptStr(JSON.parse(result).body);java.setContent(content);java.getElements('$')",
          "filterSubNode":"$.lang",
          "filterName":"$.name",
          "filterSubName":"@js:c=java.getString('$.lang');c=c!=''?'语言':''",
          "filterSubId":"@js:'lang'",
          "filterId":"$.id"
        },
        {
          "filterNode":"@js:cipher=java.get('cipher');cipherRsa=java.get('cipherRsa');key=cipherRsa.decryptStr(JSON.parse(result).ticket,PublicKey);cipherKey=java.createSymmetricCrypto(\"AES/CBC/PKCS7Padding\",key.substring(0,16),key.substring(16,32));content=cipherKey.decryptStr(JSON.parse(result).body);java.setContent(content);java.getElements('$')",
          "filterSubNode":"$.years",
          "filterName":"$.name",
          "filterSubName":"@js:c=java.getString('$.years');c=c!=''?'年份':''",
          "filterSubId":"@js:'year'",
          "filterId":"$.id"
        },
        {
          "filterNode":"@js:cipher=java.get('cipher');cipherRsa=java.get('cipherRsa');key=cipherRsa.decryptStr(JSON.parse(result).ticket,PublicKey);cipherKey=java.createSymmetricCrypto(\"AES/CBC/PKCS7Padding\",key.substring(0,16),key.substring(16,32));content=cipherKey.decryptStr(JSON.parse(result).body);java.setContent(content);java.getElements('$')",
          "filterSubNode":"$.letter",
          "filterName":"$.name",
          "filterSubName":"@js:c=java.getString('$.letter');c=c!=''?'字母':''",
          "filterSubId":"@js:'letter'",
          "filterId":"$.id"
        },
        {
          "filterNode":"@js:cipher=java.get('cipher');cipherRsa=java.get('cipherRsa');key=cipherRsa.decryptStr(JSON.parse(result).ticket,PublicKey);cipherKey=java.createSymmetricCrypto(\"AES/CBC/PKCS7Padding\",key.substring(0,16),key.substring(16,32));content=cipherKey.decryptStr(JSON.parse(result).body);java.setContent(content);java.getElements('$')",
          "filterSubNode":"$.by",
          "filterName":"$.name",
          "filterSubName":"@js:c=java.getString('$.by');c=c!=''?'排序':''",
          "filterSubId":"@js:'by'",
          "filterId":"$.id"
        }
      ]
    }
  }