{
    "author":"bill",
    "dcPlayUrl": "true",
    "cateManual": {"电影": "1","剧集": "2","动漫": "3","记录片": "4","短剧":5},
    "homeVodNode": "class.module-items@class.module-item",
    "homeVodName": "class.module-item-title@text||tag.a@title",
    "homeVodId": "class.module-item-title@href||tag.a@href",
    "homeVodImg": "tag.img@data-src||tag.img@data-original",
    "homeVodMark": "class.module-item-text@text||class.module-item-note@text",
    "cateUrl": "@get:{homeUrl}/vodshow/@get:{cateId}-@get:{area}-@get:{by}-@get:{class}-@get:{lang}-@get:{letter}---@get:{catePg}---@get:{year}.html",
    "cateVodNode": "class.module-item",
    "cateVodName": "class.module-item-title@text||tag.a@title",
    "cateVodId": "class.module-item-title@href||tag.a@href",
    "cateVodImg": "tag.img@data-src||tag.img@data-original",
    "cateVodMark": "class.module-item-text@text||class.module-item-note@text",
    "pageNode":"id.page",
    "page":"class.page-current@text",
    "pageCount":"text.尾页@href##page\\/(\\d+)##$1##",
    "dtUrl": "@get:{vid}",
    "dtNode": "class.video-info",
    "dtName": "tag.h1.0@text",
    "dtImg": "class.module-item-pic@tag.img@src",
    "dtCate": "class.tag-link.0@text",
    "dtYear": "class.tag-link.-2@text",
    "dtArea": "class.tag-link.-1@text",
    "dtMark": "class.video-info-items.3@text##备注：",
    "dtActor": ".video-info-items:matches(主演)@tag.a@text||.video-info-items:matches(主演)@text##主演：",
    "dtDirector": ".video-info-items:matches(导演)@tag.a@text",
    "dtDesc": "class.video-info-content@text",
    "dtFromNode": "class.module-tab-item||h2.module-title",
    "dtFromName": "@text",
    "dtUrlNode": ".module-tab-content:has(.module-blocklist)",
    "dtUrlSubNode": "tag.a",
    "dtUrlId": "tag.a@href",
    "dtUrlName": "tag.a@text",
    "playUrl": "@get:{playUrl}",
    "searchUrl": "@get:{homeUrl}/vodsearch/@get:{wd}----------1---.html",
    "scVodNode": "class.module-items@class.module-search-item",
    "scVodName": "tag.h3@text",
    "scVodId": "tag.h3@tag.a@href",
    "scVodImg": "tag.img@data-src",
    "scVodMark": "class.video-serial@text",
    "filterRule":{
      "filterUrl":"class.nav-menu-items@tag.a.1@href##\\w*(?:-|\\/)?\\w+\\w*\\/(\\w+)(\\/|.html)$##/vodshow/$1-----------$2##",
      "rules":[
        {
          "filterNode":"@css:.nav-menu-items li:lt(7)>a:not(:matches(首页|更新|热榜|APP|求片|发布|吃瓜|写真))",
          "filterName":"tag.a@href##\\w+\\/(\\w+)(\\/|.html)$##$1##",
          "filterId":"tag.a@href##\\w*(?:-|\\/)?\\w+\\w*\\/(\\w+)(\\/|.html)$##/vodshow/$1-----------$2##",
          "filterSubName":"tag.a@text",
          "filterSubId":"tag.a@href##\\w+\\/(\\w+)(\\/|.html)$##$1##"
        },
        {
          "filterNode":"class.library-box",
          "filterSubNode":"class.library-list@tag.a",
          "filterName":"tag.a@text",
          "filterSubName":"class.library-box@tag.a.0@text##(类型|分类)##$1##",
          "filterSubId":"@js:'cateId'",
          "filterId":"tag.a@href##\\w+\\/(\\w+)-----------(\\/|.html)$##$1##"
        },
        {
          "filterNode":"class.library-box",
          "filterSubNode":"class.library-list@tag.a",
          "filterName":"tag.a@text",
          "filterSubName":"class.library-box@tag.a.0@text##(剧情)##$1##",
          "filterSubId":"@js:'class'",
          "filterId":"tag.a@href##\\w+\\/\\w+---([^-]+)##$1##"
        },
        {
          "filterNode":"class.library-box",
          "filterSubNode":"class.library-list@tag.a",
          "filterName":"tag.a@text",
          "filterSubName":"class.library-box@tag.a.0@text##(地区)##$1##",
          "filterSubId":"@js:'area'",
          "filterId":"tag.a@href##\\w+\\/\\w+-([^-]+)##$1##"
        },
        {
          "filterNode":"class.library-box",
          "filterSubNode":"class.library-list@tag.a",
          "filterName":"tag.a@text",
          "filterSubName":"class.library-box@tag.a.0@text##(语言)##$1##",
          "filterSubId":"@js:'lang'",
          "filterId":"tag.a@href##\\w+\\/\\w+----([^-]+)##$1##"
        },
        {
          "filterNode":"class.library-box",
          "filterSubNode":"class.library-list@tag.a",
          "filterName":"tag.a@text",
          "filterSubName":"class.library-box@tag.a.0@text##(年份|时间)##$1##",
          "filterSubId":"@js:'year'",
          "filterId":"tag.a@href##\\w+\\/\\w+-----------([^-]+)(.html|\\/)$##$1##"
        },
        {
          "filterNode":"class.library-box",
          "filterSubNode":"class.library-list@tag.a",
          "filterName":"tag.a@text",
          "filterSubName":"class.library-box@tag.a.0@text##(字母)##$1##",
          "filterSubId":"@js:'letter'",
          "filterId":"tag.a@href##\\w+\\/\\w+-----([^-]+)##$1##"
        },
        {
          "filterNode":"class.library-box",
          "filterSubNode":"class.library-list@tag.a",
          "filterName":"tag.a@text",
          "filterSubName":"class.library-box@tag.a.0@text##(排序)##$1##",
          "filterSubId":"@js:'by'",
          "filterId":"tag.a@href##\\w+\\/\\w+--([^-]+)##$1##"
        }
      ]
    }
  }