{
  "home_url": "@js:'https://gitcafe.net/alipaper/'",
  "type_node": "class.tableizer-title",
  "type_name": "td@text",
  "type_id": "tag.a@href###",
  "type_flag": "@js:1",
  "home_vod_node": "$.info.new[*]",
  "home_vod_id": "$.key##^##https://www.aliyundrive.com/s/",
  "home_vod_name": "$.title",
  "home_vod_pic": "https://www.lgstatic.com/i/image2/M01/15/7E/{$.cat}.jpg",
  "home_vod_remarks": "$.des",
  "home_video_url": "@js:'https://gitcafe.net/alipaper/home.json'",
  "cate_url": "@js:pg=java.get('pg');cateId=java.get('cateId');if(cateId.search('aliyundrive')>-1){m=cateId.match('https://www.aliyundrive.com/s/([^/]+)(/folder/([^/]+))?');if(m){shareId=m[1];java.put('shareId',shareId);java.put('fileId',m[3]!=undefined?m[3]:'');};url='https://api.aliyundrive.com/adrive/v3/share_link/get_share_by_anonymous,'+JSON.stringify({'method':'POST','header':{'Referer':'https://www.aliyundrive.com/'},'body':{'share_id':String(shareId)}});fileId=java.get('fileId');if(fileId==''){content=java.ajax(url);fileId=java.getString('$.file_infos[*].file_id',content,false);java.put('fileId',fileId);};token='9ed3f99efcbe40e89b13d307f915cb63';post={'body':{'refresh_token':String(token),'grant_type':'refresh_token'},'method':'POST','headers':{'referer':'https://www.aliyundrive.com/'}};content=java.ajax('https://auth.aliyundrive.com/v2/account/token,'+JSON.stringify(post));access_token=JSON.parse(content).access_token;java.put('accessToken',access_token);shareId=java.get('shareId');post={'method':'POST','body':{'share_pwd':'','share_id':String(shareId)}};url='https://api.aliyundrive.com/v2/share_link/get_share_token,'+JSON.stringify(post);shareToken=JSON.parse(java.ajax(url)).share_token;java.put('shareToken',shareToken);fileId=java.get('fileId');post={'headers':{'x-canary':'client=web,app=share,version=v2.3.1','x-share-token':String(shareToken),'Referer':'https://www.aliyundrive.com/'},'method':'POST','body':{'share_id':String(shareId),'parent_file_id':String(fileId),'limit':200,'order_by':'name','order_direction':'ASC'}};url='https://api.aliyundrive.com/adrive/v2/file/list_by_share,'+JSON.stringify(post);}else{'https://gitcafe.net/tool/alipaper/,'+JSON.stringify({'method':'POST','body':'action=viewcat&num='+pg+'&cat='+cateId});}",
  "cate_vod_node": "$.data[*]||$.items[*]",
  "cate_vod_id": "@js:key=java.getString('$.key',result,false);type=java.getString('$.type',result,false);shareId=java.getString('$.share_id',result,false);fileId=java.getString('$.file_id',result,false);parentFileId=java.getString('$.parent_file_id',result,false);if(key!=''){result='https://www.aliyundrive.com/s/'+key;}else if(type=='folder'){result='https://www.aliyundrive.com/s/'+shareId+'/folder/'+fileId;}else if(type=='file'){result='https://www.aliyundrive.com/s/'+shareId+'/folder/'+parentFileId;}",
  "cate_vod_name": "$.title||$.name",
  "cate_vod_pic": "https://www.lgstatic.com/i/image2/M01/15/7E/{$.cat}.jpg",
  "cate_vod_remarks": "$.des||$.created_at",
  "cate_vod_tag": "$.key||$.type@js:if(result!='folder' && result!='file'){content=java.post('https://api.aliyundrive.com/adrive/v3/share_link/get_share_by_anonymous','{share_id:'+result+'}',{'referer':'https://www.aliyundrive.com/'}).body();type=java.getString('$.file_infos[*].type',String(content),false);result=type;};result",
  "page_count":"@js:1",
  "search_url": "https://gitcafe.net/tool/alipaper/,{'charset':'utf-8',method:\"POST\",body:\"action=search&from=web&keyword=@get:{searchKey}\"}",
  "search_vod_node": "$.data[*]",
  "search_vod_id": "$.key##^##https://www.aliyundrive.com/s/",
  "search_vod_name": "$.title",
  "search_vod_pic": "https://www.lgstatic.com/i/image2/M01/15/7E/{$.cat}.jpg",
  "search_vod_remarks": "$.des",
  "detail_url": "@js:code=java.get('detailId');m=code.match('https://www.aliyundrive.com/s/([^/]+)(/folder/([^/]+))?');if(m){shareId=m[1];java.put('shareId',shareId);java.put('fileId',m[3]!=undefined?m[3]:'');};'https://api.aliyundrive.com/adrive/v3/share_link/get_share_by_anonymous,'+JSON.stringify({'method':'POST','header':{'Referer':'https://www.aliyundrive.com/'},'body':{'share_id':shareId}})",
  "detail_vod_pic": "@js:java.get('proxy')+'?do=legado&js='+java.base64Encode('@js:playId=\"'+java.get('poster')+'\";shareId=\"'+java.get('shareId')+'\";shareToken=\"'+java.get('shareToken')+'\";access_token=\"'+java.get('accessToken')+'\";content=java.post(\"https://api.aliyundrive.com/v2/file/get_share_link_download_url\",\"{share_id:\"+shareId+\",file_id:\"+playId+\"}\",{\"referer\":\"https://www.aliyundrive.com/\",\"x-canary\":\"client=web,app=share,version=v2.3.1\",\"authorization\":access_token,\"x-share-token\":shareToken}).body();url=JSON.parse(content).url;url=java.head(url,{\"referer\":\"https://www.aliyundrive.com/\"}).get(\"Location\");url+\\',{\\\"headers\\\":{\\\"referer\\\":\\\"https://www.aliyundrive.com/\\\"}}\\'');",
  "detail_vod_play_from": "@js:'原画,超清,高清'.split(',')",
  "vod_play_form": "@js:result",
  "vod_play_name": "@js:size=result.get('size');name=result.get('name');parent_file_id=result.get('parent_file_id');result=name;parents=java.get('parents');for(i=0;i<parents.size();i++){parent=JSON.parse(parents.get(i));if(parent.file_id == parent_file_id){pname=parent.file_name?parent.file_name:parent.name;result=(pname!=undefined?pname:'')+ ' ' + name + ' [' + java.getSize(size)+']';break};};result;",
  "vod_play_url": "$.file_id",
  "play_url": "@js:token=String(java.ajax('https://www.qiaoji8.com/jar1/token.txt'));java.log(token);token='9ed3f99efcbe40e89b13d307f915cb63';post={'body':{'refresh_token':token,'grant_type':'refresh_token'},'method':'POST','headers':{'referer':'https://www.aliyundrive.com/'}};content=java.ajax('https://auth.aliyundrive.com/v2/account/token,'+JSON.stringify(post));access_token=JSON.parse(content).access_token;device_id=JSON.parse(content).device_id;user_id=JSON.parse(content).user_id;default_drive_id=JSON.parse(content).default_drive_id;java.put('accessToken',access_token);shareToken=java.get('shareToken');shareId=java.get('shareId');playId=java.get('playId');flag=java.get('playFlag');if(flag=='原画'){content=java.ajax('https://api.aliyundrive.com/v2/file/get_share_link_download_url,'+JSON.stringify({'headers':{'authorization':String(access_token),'x-share-token':String(shareToken),'x-canary':'client=web,app=share,version=v2.3.1','referer':'https://www.aliyundrive.com/'},'method':'POST','body':{'share_id':String(shareId),'file_id':String(playId)}}));java.log(content);url=JSON.parse(content).url;}else{if(flag=='SD'||flag=='标清'){template_id='SD';}else if(flag=='HD'||flag=='高清'){template_id='HD';}else if(flag=='FHD'||flag=='超清'){template_id='FHD';}else if(flag=='QHD'||flag=='2K'){template_id='QHD';}else{template_id='FHD';};url=java.format('http://59.47.74.33:3000/apis/yun-play/{}/{}/{}/{}/{}/{}/{}/{}/{}',shareId,playId,access_token,shareToken,template_id,default_drive_id,user_id,device_id,'index.m3u8');};",
  "play_sub": "@js:accessToken=java.get('accessToken');shareToken=java.get('shareToken');shareId=java.get('shareId');subs=java.get('subs');proxy=java.get('proxy');list=[];for(i=0;i<subs.size();i++){sub=subs.get(i);if(sub.search('@@@')>-1){name=sub.split('@@@')[0];ext=sub.split('@@@')[1];id=sub.split('@@@')[2];url=proxy+'?do=legado&js='+java.base64Encode('@js:playId=\"'+id+'\";shareId=\"'+shareId+'\";shareToken=\"'+shareToken+'\";accessToken=\"'+accessToken+'\";content=java.post(\"https://api.aliyundrive.com/v2/file/get_share_link_download_url\",\"{share_id:\"+shareId+\",file_id:\"+playId+\"}\",{\"referer\":\"https://www.aliyundrive.com/\",\"x-canary\":\"client=web,app=share,version=v2.3.1\",\"authorization\":accessToken,\"x-share-token\":shareToken}).body();url=JSON.parse(content).url;url+\\',{\\\"headers\\\":{\\\"referer\\\":\\\"https://www.aliyundrive.com/\\\"}}\\'');list.push({'name':String(name),'url':String(url)});}};JSON.stringify(list);",
  "play_header": {
    "Referer": "https://www.aliyundrive.com/"
  },
  "detail_file_node": "$.items[*]",
  "detail_file_node_flag": "$.next_marker",
  "detail_file_node_url": "@js:shareId=java.get('shareId');fileId=JSON.parse(java.get('parent')).file_id;shareToken=java.get('shareToken');post={'headers':{'x-canary':'client=web,app=share,version=v2.3.1','x-share-token':String(shareToken),'Referer':'https://www.aliyundrive.com/'},'method':'POST','body':{'share_id':String(shareId),'parent_file_id':String(fileId),'limit':200,'order_by':'name','order_direction':'ASC'}};url='https://api.aliyundrive.com/adrive/v2/file/list_by_share,'+JSON.stringify(post);",
  "detail_file_node_root": "$.type@js:result=='folder'?result:''",
  "detail_file_node_leaf": "$.name",
  "detail_file_node_sub": "$.name",
  "detail_file_node_nfo": "@js:access_token=java.get('accessToken');shareToken=java.get('shareToken');shareId=java.get('shareId');playId=java.get('nfo');content=java.ajax('https://api.aliyundrive.com/v2/file/get_share_link_download_url,'+JSON.stringify({'headers':{'authorization':String(access_token),'x-share-token':String(shareToken),'x-canary':'client=web,app=share,version=v2.3.1','referer':'https://www.aliyundrive.com/'},'method':'POST','body':{'share_id':String(shareId),'file_id':String(playId)}}));java.log(content);url=JSON.parse(content).url;java.get(url,{'referer':'https://www.aliyundrive.com/'}).body();",
  "detail_file_node_parent": "$.file_infos[*]@js:token='9ed3f99efcbe40e89b13d307f915cb63';post={'body':{'refresh_token':token,'grant_type':'refresh_token'},'method':'POST','headers':{'referer':'https://www.aliyundrive.com/'}};content=java.ajax('https://auth.aliyundrive.com/v2/account/token,'+JSON.stringify(post));access_token=JSON.parse(content).access_token;java.put('accessToken',access_token);shareId=java.get('shareId');post={'method':'POST','body':'{\"share_pwd\":\"\",\"share_id\":\"'+shareId+'\"}'};url='https://api.aliyundrive.com/v2/share_link/get_share_token,'+JSON.stringify(post);shareToken=JSON.parse(java.ajax(url)).share_token;java.put('shareToken',shareToken);fileId=java.get('fileId');fileId!=''?'{\"file_id\":\"'+fileId+'\"}':result",
  "detail_file_node_id": "$.file_id"
}