{
    "author":"bill",
    "dcPlayUrl": "true",
    "cateManual": {"电影": "1","剧集": "2","动漫": "3","记录片": "4","短剧":5},
    "homeVodNode": "class.stui-vodlist@tag.li",
    "homeVodName": "tag.a@title",
    "homeVodId": "tag.a@href",
    "homeVodImg": ".lazyload@data-src||.lazyload@data-original||.lazyload@src",
    "homeVodMark": "class.pic-text@text",
    "cateUrl": "@get:{homeUrl}/vodlist@get:{cateId}/@get:{catePg}___@get:{year}__@get:{by}_@get:{area}_.html",
    "cateVodNode": "class.stui-vodlist@tag.li",
    "cateVodName": "tag.a@title",
    "cateVodId": "tag.a@href",
    "cateVodImg": ".lazyload@data-src||.lazyload@data-original||.lazyload@src",
    "cateVodMark": "class.pic-text@text",
    "pageNode":"class.page_info",
    "page":"class.page-current@text",
    "pageCount":"text.尾页@href##page(\\d+).html##$1##",
    "dtUrl": "@get:{vid}",
    "dtNode": "class.stui-content",
    "dtName": ".title.0@text",
    "dtImg": "tag.img@data-original||tag.img@src",
    "dtCate": "tag.p.2@tag.a.0@text",
    "dtYear": "tag.p.2@text##年份：([^：]+)##$1##",
    "dtArea": "tag.p.2@tag.a.1@text",
    "dtMark": "class.data.2@text",
    "dtActor": ".data:contains(主演)@text##主演：",
    "dtDirector": ".data:contains(导演)@text##导演：",
    "dtDesc": "class.stui-content__desc@text",
    "dtFromNode": "@css:.stui-pannel__head:has(span.more)||.nav-tabs li",
    "dtFromName": "tag.h3@text",
    "dtUrlNode": "class.stui-content__playlist||class.stui-content__plist",
    "dtUrlSubNode": "class.stui-content__playlist@tag.li||class.stui-content__plist@tag.li",
    "dtUrlId": "tag.a@href",
    "dtUrlName": "tag.a@text",
    "playUrl": "@get:{playUrl}",
    "searchUrl": "@get:{homeUrl}/search-wd-@get:{wd}-p-1.html",
    "scVodNode": "class.stui-content",
    "scVodName": "tag.a@title",
    "scVodId": "tag.a@href",
    "scVodImg": ".lazyload@data-src||.lazyload@data-original||.lazyload@src",
    "scVodMark": "class.data@text",
    "filterRule":{
      "filterUrl":"class.stui-header__menu@tag.a.1@href##\\w+(\\d+)(\\/|.html)$##/vodlist$1/1_______.html##",
      "rules":[
        {
          "filterNode":"@css:.stui-header__menu li:lt(7)>a:not(:matches(首页|更新|热榜|APP|求片|发布|吃瓜|写真))",
          "filterName":"tag.a@href##\\/\\w+(\\d+)(\\/|.html)$##$1##",
          "filterId":"tag.a@href##\\w+(\\d+)(\\/|.html)$##/vodlist$1/1_______.html##",
          "filterSubName":"tag.a@text",
          "filterSubId":"tag.a@href##\\/\\w+(\\d+)(\\/|.html)$##$1##"
        },
        {
          "filterNode":"@css:.stui-screen__list",
          "filterSubNode":"tag.a",
          "filterName":"tag.a@text",
          "filterSubName":"tag.li.0@text##(类型|分类)##$1##",
          "filterSubId":"@js:'cateId'",
          "filterId":"tag.a@href##\\/\\w+(\\d+)(\\/|.html)$##$1##"
        },
        {
          "filterNode":"@css:.stui-screen__list",
          "filterSubNode":"tag.a",
          "filterName":"tag.a@text",
          "filterSubName":"tag.li.0@text##(剧情)##$1##",
          "filterSubId":"@js:'class'",
          "filterId":"tag.a@href##(?:-|\\/)?\\w+(?:-|\\/)?\\w+______([^_]+)_(\\/|.html)$##$1##"
        },
        {
          "filterNode":"@css:.stui-screen__list",
          "filterSubNode":"tag.a",
          "filterName":"tag.a@text",
          "filterSubName":"tag.li.0@text##(地区)##$1##",
          "filterSubId":"@js:'area'",
          "filterId":"tag.a@href##(?:-|\\/)?\\w+(?:-|\\/)?\\w+______([^_]+)_(\\/|.html)$##$1##"
        },
        {
          "filterNode":"@css:.stui-screen__list",
          "filterSubNode":"tag.a",
          "filterName":"tag.a@text",
          "filterSubName":"tag.li.0@text##(语言)##$1##",
          "filterSubId":"@js:'lang'",
          "filterId":"tag.a@href##(?:-|\\/)?\\w+(?:-|\\/)?\\w+----([^-]+)##$1##"
        },
        {
          "filterNode":"@css:.stui-screen__list",
          "filterSubNode":"tag.a",
          "filterName":"tag.a@text",
          "filterSubName":"tag.li.0@text##(年份)##$1##",
          "filterSubId":"@js:'year'",
          "filterId":"tag.a@href##(?:-|\\/)?\\w+(?:-|\\/)?\\w+___([^_]+)____(\\/|.html)$##$1##"
        },
        {
          "filterNode":"@css:.stui-screen__list",
          "filterSubNode":"tag.a",
          "filterName":"tag.a@text",
          "filterSubName":"tag.li.0@text##(字母)##$1##",
          "filterSubId":"@js:'letter'",
          "filterId":"tag.a@href##(?:-|\\/)?\\w+(?:-|\\/)?\\w+-----([^-]+)##$1##"
        },
        {
          "filterNode":"@css:.stui-screen__list",
          "filterSubNode":"tag.a",
          "filterName":"tag.a@text",
          "filterSubName":"tag.li.0@text##(排序)##$1##",
          "filterSubId":"@js:'by'",
          "filterId":"tag.a@href##(?:-|\\/)?\\w+(?:-|\\/)?\\w+_____([^_]+)__(\\/|.html)$##$1##"
        }
      ]
    }
  }