{
    "author":"bill",
    "dcPlayUrl": "true",
    "cateManual": {"电影": "1","剧集": "2","动漫": "3","记录片": "4","短剧":5},
    "homeVodNode": "class.vodlist@tag.li",
    "homeVodName": "tag.a@title",
    "homeVodId": "tag.a@href",
    "homeVodImg": ".lazyload@data-background-image||.lazyload@data-original||.lazyload@src",
    "homeVodMark": "class.xszxj@text",
    "cateUrl": "@get:{homeUrl}/vodshow/@get:{cateId}-@get:{area}-@get:{by}-@get:{class}-@get:{lang}-@get:{letter}---@get:{catePg}---@get:{year}.html",
    "cateVodNode": "class.vodlist@tag.li",
    "cateVodName": "tag.a@title",
    "cateVodId": "tag.a@href",
    "cateVodImg": ".lazyload@data-background-image||.lazyload@data-original||.lazyload@src",
    "cateVodMark": "class.xszxj@text",
    "pageNode":"class.page_info",
    "page":"class.page-current@text",
    "pageCount":"text.尾页@href##page(\\d+).html##$1##",
    "dtUrl": "@get:{vid}",
    "dtNode": "class.detail_list",
    "dtName": "tag.h2@text",
    "dtImg": "class.lazyload@data-original||class.lazyload@data-src||class.lazyload@src",
    "dtCate": "class.data.0@text##类型：([^\\s地]+)##$1##",
    "dtYear": "class.data.0@text##(?:年份：|上映时间：|上映日期：)([^\\s]+)##$1##",
    "dtArea": "class.data.0@text##地区：([^\\s年]+)##$1##",
    "dtMark": "class.data.1@text",
    "dtActor": ".data:contains(主演)@tag.a@text||p:contains(主演)@text##主演：",
    "dtDirector": ".data:contains(导演)@tag.a@text||p:contains(导演)@text##导演：",
    "dtDesc": "class.content_desc@text",
    "dtFromNode": "@js:url=java.getString('.btn_primary@href',null,true);result=java.ajax(url);java.setContent(result);java.getElements('.play_source_tab@tag.a||.play-tab li');",
    "dtFromName": "tag.a@text",
    "dtUrlNode": "id.playlistbox",
    "dtUrlSubNode": "tag.li",
    "dtUrlId": "tag.a@href",
    "dtUrlName": "tag.a@text",
    "playUrl": "@get:{playUrl}",
    "searchUrl": "@get:{homeUrl}/vodsearch/@get:{wd}----------1---.html",
    "scVodNode": "class.vodlist@tag.li",
    "scVodName": "tag.a@title",
    "scVodId": "tag.a@href",
    "scVodImg": ".lazyload@data-background-image||.lazyload@data-original||.lazyload@src",
    "scVodMark": "class.xszxj@text",
    "filterRule":{
      "filterUrl":"class.nav_list@tag.a.1@href##\\w*(?:-|\\/)?\\w+\\w*\\/(\\w+)(\\/|.html)$##/vodshow/$1-----------$2##",
      "rules":[
        {
          "filterNode":"@css:.nav_list li:lt(7)>a:not(:matches(首页|更新|热榜|APP|求片|发布|吃瓜|写真|专题|资讯))",
          "filterName":"tag.a@href##\\/(\\w+)(\\/|.html)$##$1##",
          "filterId":"tag.a@href##\\w*(?:-|\\/)?\\w+\\w*\\/(\\w+)(\\/|.html)$##/vodshow/$1-----------$2##",
          "filterSubName":"tag.a@text",
          "filterSubId":"tag.a@href##\\/(\\w+)(\\/|.html)$##$1##"
        },
        {
          "filterNode":"class.screen_list",
          "filterSubNode":"tag.a",
          "filterName":"tag.a@text",
          "filterSubName":"tag.li.0@text##(类型|分类)##$1##",
          "filterSubId":"@js:'cateId'",
          "filterId":"tag.a@href##(?:-|\\/)?\\w+(?:-|\\/)?(\\w+)-----------(.html|\\/)##$1##"
        },
        {
          "filterNode":"class.screen_list",
          "filterSubNode":"tag.a",
          "filterName":"tag.a@text",
          "filterSubName":"tag.li.0@text##(剧情)##$1##",
          "filterSubId":"@js:'class'",
          "filterId":"tag.a@href##(?:-|\\/)?\\w+(?:-|\\/)?\\w+---([^-]+)##$1##"
        },
        {
          "filterNode":"class.screen_list",
          "filterSubNode":"tag.a",
          "filterName":"tag.a@text",
          "filterSubName":"tag.li.0@text##(地区)##$1##",
          "filterSubId":"@js:'area'",
          "filterId":"tag.a@href##(?:-|\\/)?\\w+(?:-|\\/)?\\w+-([^-]+)##$1##"
        },
        {
          "filterNode":"class.screen_list",
          "filterSubNode":"tag.a",
          "filterName":"tag.a@text",
          "filterSubName":"tag.li.0@text##(语言)##$1##",
          "filterSubId":"@js:'lang'",
          "filterId":"tag.a@href##(?:-|\\/)?\\w+(?:-|\\/)?\\w+----([^-]+)##$1##"
        },
        {
          "filterNode":"class.screen_list",
          "filterSubNode":"tag.a",
          "filterName":"tag.a@text",
          "filterSubName":"tag.li.0@text##(年份)##$1##",
          "filterSubId":"@js:'year'",
          "filterId":"tag.a@href##(?:-|\\/)?\\w+(?:-|\\/)?\\w+-----------([^-]+)(.html|\\/)$##$1##"
        },
        {
          "filterNode":"class.screen_list",
          "filterSubNode":"tag.a",
          "filterName":"tag.a@text",
          "filterSubName":"tag.li.0@text##(字母)##$1##",
          "filterSubId":"@js:'letter'",
          "filterId":"tag.a@href##(?:-|\\/)?\\w+(?:-|\\/)?\\w+-----([^-]+)##$1##"
        },
        {
          "filterNode":"class.screen_list",
          "filterSubNode":"tag.a",
          "filterName":"tag.a@text",
          "filterSubName":"tag.li.0@text##(排序)##$1##",
          "filterSubId":"@js:'by'",
          "filterId":"tag.a@href##(?:-|\\/)?\\w+(?:-|\\/)?\\w+--([^-]+)##$1##"
        }
      ]
    }
  }